<svg xmlns="http://www.w3.org/2000/svg">
  <!-- 16x16 -->

  <!-- <symbol id="arrow" viewBox="0 0 16 16">
    <path fill-rule="evenodd" clip-rule="evenodd" d="M4.21737 14.7676C3.92406 14.4613 3.92809 13.9688 4.22637 13.6676L9.83939 8L4.22637 2.33235C3.92809 2.03117 3.92406 1.53873 4.21737 1.23245C4.51067 0.926164 4.99024 0.922026 5.28852 1.2232L12 8L5.28852 14.7768C4.99024 15.078 4.51067 15.0738 4.21737 14.7676Z" />
  </symbol> -->

  <symbol id="arrow-little" viewBox="0 0 16 16">
    <path fill-rule="evenodd" clip-rule="evenodd" d="M5.16303 12.834C4.94305 12.6152 4.94607 12.2634 5.16978 12.0483L9.37954 8L5.16978 3.95168C4.94607 3.73655 4.94305 3.38481 5.16303 3.16603C5.383 2.94726 5.74268 2.9443 5.96639 3.15943L11 8L5.96639 12.8406C5.74268 13.0557 5.383 13.0527 5.16303 12.834Z" />
  </symbol>

  <symbol id="attach" viewBox="0 0 16 16">
    <path fill-rule="evenodd" clip-rule="evenodd" d="M1.82415 9.7878C0.961577 10.6504 0.975244 12.1123 1.91682 13.0539C2.85839 13.9955 4.32033 14.0091 5.18291 13.1466L12.388 5.94148C12.8317 5.49778 12.8346 4.73154 12.3324 4.22931C11.8302 3.72708 11.0639 3.73001 10.6202 4.17371L4.55278 10.2411C4.38193 10.412 4.10492 10.412 3.93407 10.2411C3.76321 10.0703 3.76321 9.79328 3.93407 9.62243L10.0015 3.55499C10.8144 2.74209 12.1353 2.79481 12.9511 3.61059C13.7669 4.42638 13.8196 5.7473 13.0067 6.5602L5.80163 13.7653C4.56985 14.997 2.55322 14.9277 1.2981 13.6726C0.0429694 12.4175 -0.026339 10.4009 1.20543 9.16908L8.41051 1.964C10.0611 0.313365 12.7735 0.399268 14.468 2.09374C16.1624 3.7882 16.2483 6.50055 14.5977 8.15119L8.53026 14.2186C8.35941 14.3895 8.0824 14.3895 7.91154 14.2186C7.74069 14.0478 7.74069 13.7708 7.91154 13.5999L13.979 7.53247C15.2604 6.25103 15.2302 4.09337 13.8492 2.71245C12.4683 1.33154 10.3107 1.30128 9.02923 2.58272L1.82415 9.7878Z"  />
  </symbol>

  <symbol id="apply" viewBox="0 0 16 16">
    <path d="M13.6569 2.34315C12.1566 0.842855 10.1217 0 8 0C5.87827 0 3.84344 0.842855 2.34315 2.34315C0.842855 3.84344 0 5.87827 0 8C0 10.1217 0.842855 12.1566 2.34315 13.6569C3.84344 15.1571 5.87827 16 8 16C10.1217 16 12.1566 15.1571 13.6569 13.6569C15.1571 12.1566 16 10.1217 16 8C16 5.87827 15.1571 3.84344 13.6569 2.34315ZM8 14.9277C4.18011 14.9277 1.07226 11.82 1.07226 8C1.07226 4.18004 4.18004 1.07226 8 1.07226C11.82 1.07226 14.9277 4.18004 14.9277 8C14.9277 11.82 11.82 14.9277 8 14.9277Z" />
    <path d="M6.79439 9.67733L4.33448 7.21746L3.5763 7.97564L6.79439 11.1937L12.4069 5.58121L11.6487 4.82302L6.79439 9.67733Z" />
  </symbol>

  <symbol id="bell" viewBox="0 0 16 16">
    <path fill-rule="evenodd" clip-rule="evenodd" d="M8.35536 1.62283V2.95779L9.23747 3.22511C11.0282 3.76786 12.3555 5.4619 12.3555 7.48021V9.51439C12.3555 10.9839 12.7498 12.4292 13.4975 13.6928L14.1293 14.7609H1.87051L2.50311 13.6914C3.24978 12.4282 3.64397 10.9842 3.64397 9.51439V7.48021C3.64397 5.4619 4.97126 3.76786 6.762 3.22511L7.6441 2.95779V1.62283C7.6441 1.39074 7.82597 1.23925 7.99973 1.23925C8.17349 1.23925 8.35536 1.39074 8.35536 1.62283ZM15.9433 15.3857L14.5696 13.0635C13.9352 11.9916 13.6 10.7639 13.6 9.51439V7.48021C13.6 4.91202 11.9103 2.73985 9.59981 2.03957V1.62283C9.59981 0.727839 8.88218 0 7.99973 0C7.11728 0 6.39966 0.727839 6.39966 1.62283V2.03957C4.08919 2.73985 2.39952 4.91202 2.39952 7.48021V9.51439C2.39952 10.7639 2.0643 11.9908 1.43068 13.0627L0.0570333 15.385C-0.0173685 15.5107 -0.0189826 15.6666 0.0522319 15.7939C0.123446 15.9213 0.255452 16 0.399461 16H15.6C15.744 16 15.8768 15.9213 15.9481 15.7948C16.0193 15.6682 16.0169 15.5107 15.9433 15.3857Z" />
  </symbol>

  <!-- <symbol id="clock" viewBox="0 0 16 16">
    <path fill-rule="evenodd" clip-rule="evenodd" d="M14.9824 8.5C14.8726 10.0569 14.2534 11.4734 13.2906 12.5837L12.5955 11.8887C12.4003 11.6934 12.0837 11.6934 11.8884 11.8887C11.6931 12.0837 11.6931 12.4004 11.8884 12.5957L12.5835 13.2908C11.4729 14.2537 10.0562 14.8728 8.49872 14.9824V14C8.49872 13.7239 8.27484 13.5 7.99872 13.5C7.7226 13.5 7.49872 13.7239 7.49872 14V14.9824C5.94263 14.8723 4.52704 14.2537 3.41718 13.2915L4.11298 12.5957C4.30823 12.4004 4.30823 12.0837 4.11298 11.8884C3.91772 11.6934 3.60114 11.6934 3.40588 11.8884L2.71002 12.5845C1.74689 11.4741 1.1275 10.0574 1.01758 8.5H2.00177C2.27789 8.5 2.50177 8.27612 2.50177 8C2.50177 7.84399 2.4303 7.70459 2.3183 7.61304C2.23212 7.54248 2.12189 7.5 2.00177 7.5H1.01758C1.1275 5.94263 1.74689 4.52588 2.71002 3.41553L3.40588 4.11157C3.60114 4.30664 3.91772 4.30664 4.11298 4.11157C4.30829 3.91626 4.30829 3.59961 4.11298 3.4043L3.41718 2.7085C4.52704 1.74634 5.94263 1.12769 7.49872 1.01758V2C7.49872 2.27612 7.7226 2.5 7.99872 2.5C8.27484 2.5 8.49872 2.27612 8.49872 2V1.01758C10.0562 1.1272 11.4729 1.74634 12.5835 2.70923L11.8884 3.4043C11.6931 3.59961 11.6931 3.91626 11.8884 4.11133C11.9323 4.15527 11.9824 4.18945 12.0358 4.21362C12.0604 4.22461 12.0857 4.23364 12.1115 4.24048C12.1348 4.24683 12.1584 4.25146 12.1823 4.25415C12.3293 4.27173 12.4827 4.22412 12.5955 4.11133L13.2906 3.41626C14.2534 4.52661 14.8726 5.94312 14.9824 7.5H13.9996C13.9487 7.5 13.8995 7.50757 13.8533 7.52173C13.8383 7.52637 13.8237 7.53149 13.8093 7.53735C13.7736 7.55225 13.74 7.5708 13.709 7.59302C13.5822 7.68384 13.4996 7.83228 13.4996 8C13.4996 8.27612 13.7234 8.5 13.9996 8.5H14.9824ZM1.00067 7.90332L1.00177 7.84106V8.15894L1.00073 8.10181L1 8L1.00067 7.90332ZM16 8C16 12.4182 12.4183 16 8 16C3.58173 16 0 12.4182 0 8C0 3.58179 3.58173 0 8 0C12.4183 0 16 3.58179 16 8ZM8.49872 5C8.49872 4.72388 8.27484 4.5 7.99872 4.5C7.7226 4.5 7.49872 4.72388 7.49872 5V9.5H9.99872C10.2748 9.5 10.4987 9.27612 10.4987 9C10.4987 8.72388 10.2748 8.5 9.99872 8.5H8.49872V5ZM14.9996 7.92188L15 8L14.9996 8.07812V7.92188Z"  />
  </symbol> -->

  <!-- <symbol id="close" viewBox="0 0 16 16">
    <path fill-rule="evenodd" clip-rule="evenodd" d="M0.46967 0.46967C0.762563 0.176777 1.23744 0.176777 1.53033 0.46967L8 6.93934L14.4697 0.46967C14.7626 0.176777 15.2374 0.176777 15.5303 0.46967C15.8232 0.762563 15.8232 1.23744 15.5303 1.53033L9.06066 8L15.5303 14.4697C15.8232 14.7626 15.8232 15.2374 15.5303 15.5303C15.2374 15.8232 14.7626 15.8232 14.4697 15.5303L8 9.06066L1.53033 15.5303C1.23744 15.8232 0.762563 15.8232 0.46967 15.5303C0.176777 15.2374 0.176777 14.7626 0.46967 14.4697L6.93934 8L0.46967 1.53033C0.176777 1.23744 0.176777 0.762563 0.46967 0.46967Z"  />
  </symbol> -->

  <symbol id="comment" viewBox="0 0 16 16">
    <path fill-rule="evenodd" clip-rule="evenodd" d="M1.2 7.54962C1.2 10.2471 3.98075 12.8712 8 12.8712C8.48362 12.8712 8.95437 12.8314 9.40765 12.7561C9.70592 12.7065 10.0071 12.73 10.2418 12.7613C10.4929 12.7949 10.7595 12.8508 11.0197 12.9137C11.4323 13.0134 11.8974 13.1478 12.3381 13.2751C12.4457 13.3062 12.5519 13.3369 12.6555 13.3666C13.1756 13.5154 13.6392 13.641 14.0177 13.7129C13.9932 13.5938 13.9611 13.4548 13.9212 13.2924C13.9068 13.2343 13.8913 13.1724 13.875 13.1076C13.787 12.7575 13.6774 12.3213 13.6238 11.9268C13.5679 11.5153 13.5045 10.7458 13.9573 10.1049C14.5049 9.32982 14.8 8.45938 14.8 7.54962C14.8 4.85216 12.0193 2.22805 8 2.22805C3.98075 2.22805 1.2 4.85216 1.2 7.54962ZM14.5437 13.7696C14.5439 13.7697 14.5406 13.7702 14.5336 13.7708C14.5401 13.7697 14.5436 13.7694 14.5437 13.7696ZM14.9297 10.8244C15.6104 9.86107 16 8.7426 16 7.54962C16 3.93237 12.4183 1 8 1C3.58172 1 0 3.93237 0 7.54962C0 11.1669 3.58172 14.0992 8 14.0992C8.54795 14.0992 9.08302 14.0541 9.6 13.9682C10.057 13.8923 11.011 14.1679 11.9989 14.4532C13.2086 14.8027 14.4691 15.1668 14.9297 14.918C15.4913 14.6146 15.262 13.6988 15.0325 12.7824C14.8381 12.0061 14.6436 11.2294 14.9297 10.8244Z"  />
  </symbol>
  
  <symbol id="complaint" viewBox="0 0 16 16">
    <path fill-rule="evenodd" clip-rule="evenodd" d="M5.55594 3.97661C5.55594 2.15215 7.18833 0.666804 9.21055 0.666804C11.2328 0.666804 12.8652 2.15215 12.8652 3.97661C12.8652 4.20348 12.84 4.4247 12.7922 4.6382C12.7885 4.65476 12.7862 4.67129 12.7852 4.68767C12.7834 4.69355 12.7818 4.69947 12.7803 4.70552C12.7364 4.8852 12.8596 5.0635 13.0556 5.10377C14.3279 5.36526 15.2727 6.3955 15.2727 7.62083C15.2727 9.04275 13.9999 10.2019 12.4212 10.2019C12.2204 10.2019 12.0576 10.3512 12.0576 10.5353C12.0576 10.7194 12.2204 10.8687 12.4212 10.8687C14.3938 10.8687 16 9.41815 16 7.62083C16 6.18232 14.9708 4.96594 13.5491 4.53765C13.5777 4.35423 13.5924 4.16689 13.5924 3.97661C13.5924 1.77687 11.6268 0 9.21055 0C7.1836 0 5.47369 1.25048 4.97537 2.95206C4.78115 2.92817 4.58301 2.91586 4.38188 2.91586C1.96568 2.91586 0 4.69274 0 6.89245C0 9.0922 1.96568 10.8691 4.38188 10.8691C4.58271 10.8691 4.74552 10.7198 4.74552 10.5357C4.74552 10.3515 4.58271 10.2023 4.38188 10.2023C2.35966 10.2023 0.727279 8.71692 0.727279 6.89245C0.727279 5.06802 2.35966 3.58267 4.38188 3.58267C4.53962 3.58267 4.69489 3.5917 4.8471 3.6092C4.8349 3.73018 4.82866 3.85272 4.82866 3.97661C4.82866 5.00579 5.25994 5.94385 5.96594 6.64931C6.10171 6.785 6.33174 6.79404 6.47972 6.66958C6.62771 6.54509 6.6376 6.33419 6.50182 6.19852C5.91339 5.61053 5.55594 4.83152 5.55594 3.97661ZM7.19878 7.98492C7.00459 7.98492 6.83818 8.11084 6.80343 8.28405L5.99978 12.2916C5.97848 12.3979 6.01028 12.5072 6.08663 12.5902C6.16297 12.6731 6.27598 12.7211 6.39513 12.7211H7.5015L6.80652 15.5566C6.76396 15.7303 6.86596 15.9064 7.04781 15.9733C7.22966 16.0401 7.43816 15.9781 7.541 15.8266L10.7556 11.0904C10.8319 10.978 10.8352 10.837 10.7641 10.7218C10.6931 10.6065 10.5589 10.5352 10.4134 10.5352H9.49947L10.7623 8.52987C10.8333 8.41713 10.8328 8.27864 10.7609 8.16631C10.689 8.05402 10.5566 7.98492 10.4134 7.98492H7.19878Z"  />
  </symbol>

  <!-- <symbol id="eye" viewBox="0 0 16 16">
    <path fill-rule="evenodd" clip-rule="evenodd" d="M7.99992 13C12.3497 13 15.7554 8.49683 15.8983 8.30518C16.0339 8.12354 16.0339 7.87646 15.8983 7.69458C15.7554 7.50317 12.3497 3 7.99992 3C3.65019 3 0.244308 7.50317 0.101486 7.69482C-0.0338287 7.87671 -0.0338287 8.12354 0.101486 8.30542C0.244308 8.49683 3.65019 13 7.99992 13ZM1.19939 8.00024C2.02086 7.02319 4.79588 4.03442 7.99992 4.03442C11.2108 4.03442 13.9801 7.02173 14.8005 7.99976C13.9786 8.97729 11.2038 11.9656 7.99992 11.9656C4.78899 11.9656 2.01976 8.97827 1.19939 8.00024ZM4.83678 8C4.83678 9.71118 6.25658 11.1035 8.00163 11.1035C9.74669 11.1035 11.1665 9.71118 11.1665 8C11.1665 6.28882 9.74669 4.89648 8.00163 4.89648C6.25658 4.89648 4.83678 6.28882 4.83678 8ZM5.89177 8C5.89177 6.85913 6.83818 5.93115 8.00163 5.93115C9.16508 5.93115 10.1115 6.85913 10.1115 8C10.1115 9.14087 9.16502 10.0691 8.00163 10.0691C6.83824 10.0691 5.89177 9.14087 5.89177 8Z"  />
  </symbol> -->

  <symbol id="flat" viewBox="0 0 16 16">
    <rect x="2" y="2" width="4" height="4" rx="1"  />
    <rect x="10" y="2" width="4" height="4" rx="1"  />
    <rect x="10" y="10" width="4" height="4" rx="1"  />
    <rect x="2" y="10" width="4" height="4" rx="1"  />
  </symbol>

  <symbol id="frame" viewBox="0 0 16 16">
    <path fill-rule="evenodd" clip-rule="evenodd" d="M0 0H5.86667C6.16122 0 6.4 0.238781 6.4 0.533333C6.4 0.827885 6.16122 1.06667 5.86667 1.06667H1.06667V5.86667C1.06667 6.16122 0.827885 6.4 0.533333 6.4C0.238781 6.4 0 6.16122 0 5.86667V0ZM9.6 0.533333C9.6 0.238781 9.83878 0 10.1333 0H16V5.86667C16 6.16122 15.7612 6.4 15.4667 6.4C15.1721 6.4 14.9333 6.16122 14.9333 5.86667V1.06667H10.1333C9.83878 1.06667 9.6 0.827885 9.6 0.533333ZM0.533333 9.6C0.827885 9.6 1.06667 9.83878 1.06667 10.1333V14.9333H5.86667C6.16122 14.9333 6.4 15.1721 6.4 15.4667C6.4 15.7612 6.16122 16 5.86667 16H0V10.1333C0 9.83878 0.238781 9.6 0.533333 9.6ZM15.4667 9.6C15.7612 9.6 16 9.83878 16 10.1333V16H10.1333C9.83878 16 9.6 15.7612 9.6 15.4667C9.6 15.1721 9.83878 14.9333 10.1333 14.9333H14.9333V10.1333C14.9333 9.83878 15.1721 9.6 15.4667 9.6Z"  />
  </symbol>

  <symbol id="filter" viewBox="0 0 16 16">
    <path d="M7.45709 15.5H6V7.93213L0.75 1.68212V0.5H15V1.67537L10 7.92537V12.9571L7.45709 15.5ZM7 14.5H7.04291L9 12.5429V7.57463L13.8597 1.5H1.90313L7 7.56787V14.5Z" />
  </symbol>

  <!-- <symbol id="like" viewBox="0 0 16 16">
    <path fill-rule="evenodd" clip-rule="evenodd" d="M0.0297971 5.29586C0.282679 2.84817 2.20514 1 4.6688 1C5.94813 1 7.12177 1.50307 7.96674 2.36903C8.83076 1.50791 10.0402 1.00026 11.3311 1.00026C13.7954 1.00026 15.7176 2.84882 15.9705 5.29676C16.0026 5.50097 16.0559 6.08242 15.8306 6.95595C15.4899 8.27857 14.7063 9.46655 13.5851 10.3973L13.5811 10.4007L7.95244 15L2.41488 10.3971C1.29364 9.46658 0.510071 8.27836 0.169372 6.95611M0.0297971 5.29586C-0.00299925 5.50251 -0.0554602 6.08411 0.169372 6.95611L0.0297971 5.29586ZM4.6688 2.33479C2.97665 2.33479 1.57561 3.59922 1.39266 5.44607L1.39019 5.47098L1.38581 5.49565C1.3837 5.50755 1.31447 5.91344 1.49955 6.63119C1.76543 7.66316 2.38294 8.61644 3.30473 9.38146L7.96001 13.251L12.6971 9.38016C13.6179 8.6151 14.2347 7.66279 14.5003 6.63135C14.6853 5.91434 14.6165 5.50774 14.6141 5.49406L14.6099 5.47035L14.6076 5.44641C14.4244 3.59945 13.0235 2.33505 11.3311 2.33505C10.1753 2.33505 9.12541 2.9048 8.53853 3.80468L7.95322 4.70214L7.37706 3.79909C6.79318 2.88395 5.79482 2.33479 4.6688 2.33479Z" />
  </symbol> -->

  <!-- <symbol id="m" viewBox="0 0 16 16">
    <path d="M4.82167 4.2067C4.58179 3.39008 3.93068 3.47958 3.4855 3.85993C2.38887 4.87788 0.96096 7.0145 1.87483 10.0911C2.64019 12.6975 5.82483 14.3643 5.82483 14.3643H2.11238C2.11238 14.3643 0.195482 12.2053 0.0241233 9.66603C-0.192911 6.45556 1.0866 4.43079 2.57163 3.11084C3.96526 1.86914 5.29036 1.5 5.29036 1.5L8.00096 10.4246L10.7116 1.5C10.7116 1.5 12.0367 1.86914 13.4303 3.11084C14.9153 4.43079 16.1948 6.45556 15.9778 9.66603C15.8064 12.2053 13.8895 14.3643 13.8895 14.3643H10.1771C10.1771 14.3643 13.3615 12.6975 14.1271 10.0911C15.041 7.01485 13.6131 4.87823 12.5164 3.85993C12.0709 3.47958 11.4198 3.39008 11.1803 4.2067C10.3578 6.81313 8.0013 14.2811 8.0013 14.2811C8.0013 14.2811 5.64414 6.81063 4.82167 4.2067Z"  />
  </symbol> -->

  <!-- <symbol id="person" viewBox="0 0 16 16">
    <path d="M8 9.6C12.4181 9.6 15 11.2715 15 13.3333V15H1V13.3333C1 11.2715 3.58187 9.6 8 9.6ZM13.9333 13.3333C13.9333 11.8613 11.8293 10.6667 8 10.6667C4.17067 10.6667 2.06667 11.8613 2.06667 13.3333V13.9333H13.9333V13.3333ZM8 1C8.99014 1 9.93973 1.39333 10.6399 2.09347C11.34 2.7936 11.7333 3.74319 11.7333 4.73333C11.7333 5.72348 11.34 6.67306 10.6399 7.3732C9.93973 8.07333 8.99014 8.46667 8 8.46667C7.00986 8.46667 6.06027 8.07333 5.36014 7.3732C4.66 6.67306 4.26667 5.72348 4.26667 4.73333C4.26667 3.74319 4.66 2.7936 5.36014 2.09347C6.06027 1.39333 7.00986 1 8 1ZM8 2.06667C7.29276 2.06667 6.61448 2.34762 6.11438 2.84772C5.61429 3.34781 5.33333 4.02609 5.33333 4.73333C5.33333 5.44058 5.61429 6.11885 6.11438 6.61895C6.61448 7.11905 7.29276 7.4 8 7.4C8.70724 7.4 9.38552 7.11905 9.88562 6.61895C10.3857 6.11885 10.6667 5.44058 10.6667 4.73333C10.6667 4.02609 10.3857 3.34781 9.88562 2.84772C9.38552 2.34762 8.70724 2.06667 8 2.06667Z" />
  </symbol> -->

  <!-- <symbol id="pin_empty" viewBox="0 0 16 16">
    <path fill-rule="evenodd" clip-rule="evenodd" d="M7.59802 15.8269C7.81275 16.0579 8.18764 16.0575 8.40198 15.8269C8.63059 15.581 14 9.75982 14 5.79457C13.9999 2.59944 11.3084 0 8 0C4.69158 0 2 2.59944 2 5.79457C2 9.75982 7.36941 15.581 7.59802 15.8269ZM13 5.79457C12.9999 3.18425 10.7892 1 8 1C5.21075 1 3 3.18428 3 5.79457C3 6.57978 3.27161 7.53541 3.75177 8.58408C4.22594 9.61968 4.86976 10.674 5.53567 11.6366C6.5087 13.0431 7.49844 14.2104 8 14.7791C8.50157 14.2104 9.4913 13.0431 10.4643 11.6366C11.1302 10.674 11.7741 9.61968 12.2482 8.58408C12.7284 7.53542 13 6.5798 13 5.79459M8.33041 15.146L8.33038 15.146ZM11 6C11 7.65685 9.65685 9 8 9C6.34315 9 5 7.65685 5 6C5 4.34315 6.34315 3 8 3C9.65685 3 11 4.34315 11 6ZM10 6C10 7.10457 9.10457 8 8 8C6.89543 8 6 7.10457 6 6C6 4.89543 6.89543 4 8 4C9.10457 4 10 4.89543 10 6Z"  />
  </symbol> -->

  <symbol id="pin_fill" viewBox="0 0 16 16">
    <path d="M8 0C4.69158 0 2 2.59944 2 5.79457C2 9.75982 7.36941 15.581 7.59802 15.8269C7.81275 16.0579 8.18764 16.0575 8.40198 15.8269C8.63059 15.581 14 9.75982 14 5.79457C13.9999 2.59944 11.3084 0 8 0ZM8 8.70998C6.33545 8.70998 4.98128 7.40213 4.98128 5.79457C4.98128 4.187 6.33549 2.87919 8 2.87919C9.66452 2.87919 11.0187 4.18704 11.0187 5.7946C11.0187 7.40217 9.66452 8.70998 8 8.70998Z"  />
  </symbol>

  <symbol id="play" viewBox="0 0 16 16">
    <path fill-rule="evenodd" clip-rule="evenodd" d="M15 8L1 -6.11959e-07L1 16L15 8ZM12.6667 8L2.16667 2L2.16667 14L12.6667 8Z"  />
  </symbol>

  <symbol id="plus" viewBox="0 0 16 16">
    <path d="M8.75 1C8.75 0.585786 8.41421 0.25 8 0.25C7.58579 0.25 7.25 0.585786 7.25 1V7.25H1C0.585787 7.25 0.25 7.58579 0.25 8C0.25 8.41421 0.585787 8.75 1 8.75H7.25V15C7.25 15.4142 7.58579 15.75 8 15.75C8.41421 15.75 8.75 15.4142 8.75 15V8.75H15C15.4142 8.75 15.75 8.41421 15.75 8C15.75 7.58579 15.4142 7.25 15 7.25H8.75V1Z" />
  </symbol>

  <symbol id="search" viewBox="0 0 16 16">
    <path fill-rule="evenodd" clip-rule="evenodd" d="M1.52389 7.22417C1.52389 10.3378 4.12048 12.9245 7.40175 12.9245C10.683 12.9245 13.2796 10.3378 13.2796 7.22417C13.2796 4.11054 10.683 1.52381 7.40175 1.52381C4.12048 1.52381 1.52389 4.11054 1.52389 7.22417ZM0 7.22417C0 11.214 3.31388 14.4483 7.40175 14.4483C9.08967 14.4483 10.6456 13.8969 11.8908 12.9685L14.6993 15.7768C14.9968 16.0744 15.4793 16.0744 15.7768 15.7768C16.0744 15.4793 16.0744 14.9969 15.7768 14.6993L13.0129 11.9356C14.1289 10.6707 14.8035 9.02433 14.8035 7.22417C14.8035 3.23437 11.4896 0 7.40175 0C3.31388 0 0 3.23437 0 7.22417Z" />
  </symbol>

  <symbol id="sent" viewBox="0 0 16 16">
    <path fill-rule="evenodd" clip-rule="evenodd" d="M15.4619 7.40049L1.4578 0.115229C0.677111 -0.290902 -0.207102 0.44231 0.0432748 1.28819L1.92266 7.63748C1.98505 7.61956 2.05095 7.60996 2.11908 7.60996L10.0494 7.60996C10.4428 7.60996 10.7617 7.92999 10.7617 8.32477C10.7617 8.71955 10.4428 9.03958 10.0494 9.03958L2.11908 9.03958C2.04522 9.03958 1.97399 9.0283 1.907 9.00736L0.0846589 14.6904C-0.183327 15.5261 0.674839 16.2781 1.46403 15.8992L15.4334 9.19098C16.1756 8.8346 16.1923 7.78047 15.4619 7.40049Z"  />
  </symbol>
  
  <symbol id="share" viewBox="0 0 16 16">
    <path fill-rule="evenodd" clip-rule="evenodd" d="M8.35875 1L15.1445 6.32245L16 6.99363L8.35875 12.9873V9.4539H5.60125C5.04652 9.4539 4.67458 9.51777 4.15907 9.78459C3.58152 10.0835 2.82584 10.6375 1.55949 11.6961L0 13V11.0429C0 7.04993 3.32202 4.53335 6.18442 4.53335H8.35875V1ZM9.45299 3.21234V5.58066H6.18442C3.99834 5.58066 1.29309 7.49338 1.10466 10.6869C2.22237 9.76273 2.99115 9.19844 3.63857 8.86335C4.34483 8.49781 4.90345 8.40659 5.60125 8.40659H9.45299V10.7749L14.2739 6.99363L9.45299 3.21234Z"  />
  </symbol>

  <symbol id="smile" viewBox="0 0 16 16">
    <path fill-rule="evenodd" clip-rule="evenodd" d="M15 8C15 11.866 11.866 15 8 15C4.13403 15 1 11.866 1 8C1 4.13403 4.13403 1 8 1C11.866 1 15 4.13403 15 8ZM16 8C16 12.4182 12.4182 16 8 16C3.58179 16 0 12.4182 0 8C0 3.58179 3.58179 0 8 0C12.4182 0 16 3.58179 16 8ZM5 7C5.55225 7 6 6.55225 6 6C6 5.44775 5.55225 5 5 5C4.44775 5 4 5.44775 4 6C4 6.55225 4.44775 7 5 7ZM12 6C12 6.55225 11.5522 7 11 7C10.4478 7 10 6.55225 10 6C10 5.44775 10.4478 5 11 5C11.5522 5 12 5.44775 12 6ZM5.44727 9.77637C5.32373 9.5293 5.02344 9.4292 4.77637 9.55273C4.5293 9.67627 4.4292 9.97656 4.55273 10.2236C5.13574 11.3894 6.4646 12.3 8 12.3C9.5354 12.3 10.8643 11.3894 11.4473 10.2236C11.5708 9.97656 11.4707 9.67627 11.2236 9.55273C10.9766 9.4292 10.6763 9.5293 10.5527 9.77637C10.1357 10.6106 9.14844 11.3 8 11.3C6.85156 11.3 5.86426 10.6106 5.44727 9.77637Z"  />
  </symbol>

  <!-- <symbol id="star" viewBox="0 0 16 16">
    <path d="M9.95638 5.3365L10.0719 5.58216L10.3408 5.61912L14.9187 6.24829L11.5673 9.51635L11.3776 9.70135L11.4242 9.9622L12.2445 14.5563L8.24134 12.3501L8 12.2171L7.75866 12.3501L3.75555 14.5563L4.57581 9.9622L4.62239 9.70135L4.43267 9.51635L1.08133 6.24829L5.65921 5.61912L5.92813 5.58216L6.04362 5.3365L8 1.17519L9.95638 5.3365Z" stroke="#009AA4"/>
  </symbol> -->

  <!-- <symbol id="three-dots" viewBox="0 0 16 16">
    <path fill-rule="evenodd" clip-rule="evenodd" d="M2 10C3.10547 10 4 9.10547 4 8C4 6.89453 3.10547 6 2 6C0.894531 6 0 6.89453 0 8C0 9.10547 0.894531 10 2 10ZM10 8C10 9.10547 9.10547 10 8 10C6.89453 10 6 9.10547 6 8C6 6.89453 6.89453 6 8 6C9.10547 6 10 6.89453 10 8ZM16 8C16 9.10547 15.1055 10 14 10C13.5039 10 13.0488 9.82031 12.6992 9.52148C12.2715 9.1543 12 8.60938 12 8C12 7.92578 12.0039 7.85156 12.0117 7.7793C12.0215 7.68555 12.0391 7.5918 12.0625 7.5C12.2832 6.63867 13.0664 6 14 6C14.3652 6 14.707 6.09766 15 6.26758C15.377 6.48633 15.6758 6.82422 15.8457 7.23047C15.9453 7.4668 16 7.72656 16 8Z" />
  </symbol> -->

  <symbol id="three-line" viewBox="0 0 16 16">
    <rect y="2" width="16" height="2" rx="1"  />
    <rect y="7" width="16" height="2" rx="1"  />
    <path d="M0 13C0 12.4477 0.447715 12 1 12H15C15.5523 12 16 12.4477 16 13C16 13.5523 15.5523 14 15 14H1C0.447715 14 0 13.5523 0 13Z"  />
  </symbol>

  <!-- 24x24 -->

  <symbol id="fb" viewBox="0 0 24 24">
    <path d="M12 0C5.3725 0 0 5.3725 0 12C0 18.6275 5.3725 24 12 24C18.6275 24 24 18.6275 24 12C24 5.3725 18.6275 0 12 0ZM14.8425 8.2925H13.0388C12.825 8.2925 12.5875 8.57375 12.5875 8.9475V10.25H14.8438L14.5025 12.1075H12.5875V17.6838H10.4588V12.1075H8.5275V10.25H10.4588V9.1575C10.4588 7.59 11.5463 6.31625 13.0388 6.31625H14.8425V8.2925Z" />
  </symbol>

  <symbol id="telegram" viewBox="0 0 24 24">
    <path d="M15.9241 17.5045L17.8929 8.22321C17.9732 7.83036 17.9263 7.54911 17.7522 7.37946C17.5781 7.20982 17.3482 7.17857 17.0625 7.28571L5.49107 11.7455C5.23214 11.8438 5.0558 11.9554 4.96205 12.0804C4.8683 12.2054 4.85714 12.3237 4.92857 12.4353C5 12.5469 5.14286 12.6339 5.35714 12.6964L8.31696 13.6205L15.1875 9.29464C15.375 9.16964 15.5179 9.14286 15.6161 9.21429C15.6786 9.25893 15.6607 9.32589 15.5625 9.41518L10.0045 14.4375L9.79018 17.4911C9.99554 17.4911 10.1964 17.3929 10.3929 17.1964L11.8393 15.8036L14.8393 18.0134C15.4107 18.3348 15.7723 18.1652 15.9241 17.5045ZM24 12C24 13.625 23.683 15.1786 23.0491 16.6607C22.4152 18.1429 21.5625 19.4196 20.4911 20.4911C19.4196 21.5625 18.1429 22.4152 16.6607 23.0491C15.1786 23.683 13.625 24 12 24C10.375 24 8.82143 23.683 7.33929 23.0491C5.85714 22.4152 4.58036 21.5625 3.50893 20.4911C2.4375 19.4196 1.58482 18.1429 0.950893 16.6607C0.316964 15.1786 0 13.625 0 12C0 10.375 0.316964 8.82143 0.950893 7.33929C1.58482 5.85714 2.4375 4.58036 3.50893 3.50893C4.58036 2.4375 5.85714 1.58482 7.33929 0.950893C8.82143 0.316964 10.375 0 12 0C13.625 0 15.1786 0.316964 16.6607 0.950893C18.1429 1.58482 19.4196 2.4375 20.4911 3.50893C21.5625 4.58036 22.4152 5.85714 23.0491 7.33929C23.683 8.82143 24 10.375 24 12Z" />
  </symbol>

  <symbol id="vk" viewBox="0 0 24 24">
    <path d="M12.0005 0.47998C5.63807 0.47998 0.480469 5.63758 0.480469 12C0.480469 18.3624 5.63807 23.52 12.0005 23.52C18.3629 23.52 23.5205 18.3624 23.5205 12C23.5205 5.63758 18.3629 0.47998 12.0005 0.47998ZM16.4309 13.4772C16.4309 13.4772 17.4497 14.4828 17.7005 14.9496C17.7077 14.9592 17.7113 14.9688 17.7137 14.9736C17.8157 15.1452 17.8397 15.2784 17.7893 15.378C17.7053 15.5436 17.4173 15.6252 17.3189 15.6324H15.5189C15.3941 15.6324 15.1325 15.6 14.8157 15.3816C14.5721 15.2112 14.3321 14.9316 14.0981 14.6592C13.7489 14.2536 13.4465 13.9032 13.1417 13.9032C13.103 13.9031 13.0645 13.9092 13.0277 13.9212C12.7973 13.9956 12.5021 14.3244 12.5021 15.2004C12.5021 15.474 12.2861 15.6312 12.1337 15.6312H11.3093C11.0285 15.6312 9.56567 15.5328 8.26967 14.166C6.68327 12.492 5.25527 9.13438 5.24327 9.10318C5.15327 8.88598 5.33927 8.76958 5.54207 8.76958H7.36007C7.60247 8.76958 7.68167 8.91718 7.73687 9.04798C7.80167 9.20038 8.03927 9.80638 8.42927 10.488C9.06167 11.5992 9.44927 12.0504 9.76007 12.0504C9.81835 12.0497 9.87559 12.0349 9.92687 12.0072C10.3325 11.7816 10.2569 10.3356 10.2389 10.0356C10.2389 9.97918 10.2377 9.38878 10.0301 9.10558C9.88127 8.90038 9.62807 8.82238 9.47447 8.79358C9.53664 8.70779 9.61855 8.63823 9.71327 8.59078C9.99167 8.45158 10.4933 8.43118 10.9913 8.43118H11.2685C11.8085 8.43838 11.9477 8.47318 12.1433 8.52238C12.5393 8.61718 12.5477 8.87278 12.5129 9.74758C12.5021 9.99598 12.4913 10.2768 12.4913 10.608C12.4913 10.68 12.4877 10.7568 12.4877 10.8384C12.4757 11.2836 12.4613 11.7888 12.7757 11.9964C12.8167 12.0221 12.8641 12.0358 12.9125 12.036C13.0217 12.036 13.3505 12.036 14.2409 10.5084C14.5155 10.0167 14.7541 9.50575 14.9549 8.97958C14.9729 8.94838 15.0257 8.85238 15.0881 8.81518C15.1341 8.7917 15.1852 8.77976 15.2369 8.78038H17.3741C17.6069 8.78038 17.7665 8.81518 17.7965 8.90518C17.8493 9.04798 17.7869 9.48358 16.8113 10.8048L16.3757 11.3796C15.4913 12.5388 15.4913 12.5976 16.4309 13.4772Z" />
  </symbol>

  <symbol id="youtube" viewBox="0 0 24 24">
    <path d="M13.9241 11.7996L11.2289 10.542C10.9937 10.4328 10.8005 10.5552 10.8005 10.8156V13.1844C10.8005 13.4448 10.9937 13.5672 11.2289 13.458L13.9229 12.2004C14.1593 12.09 14.1593 11.91 13.9241 11.7996ZM12.0005 0.47998C5.63807 0.47998 0.480469 5.63758 0.480469 12C0.480469 18.3624 5.63807 23.52 12.0005 23.52C18.3629 23.52 23.5205 18.3624 23.5205 12C23.5205 5.63758 18.3629 0.47998 12.0005 0.47998ZM12.0005 16.68C6.10367 16.68 6.00047 16.1484 6.00047 12C6.00047 7.85158 6.10367 7.31998 12.0005 7.31998C17.8973 7.31998 18.0005 7.85158 18.0005 12C18.0005 16.1484 17.8973 16.68 12.0005 16.68Z" />
  </symbol>

  <!-- 32x32 -->

  <symbol id="a-vacuum-cleaner" viewBox="0 0 32 32">
    <path fill-rule="evenodd" clip-rule="evenodd" d="M11.7943 7.24658C11.8254 7.1604 11.8576 7.07446 11.891 6.98926L12.4877 7.28271C12.4636 7.34546 12.44 7.40869 12.4173 7.47217L12.4163 7.47485L4.55086 27.0271L3.89159 26.811L11.7922 7.2522L11.7943 7.24658ZM3.26075 26.6045C3.00134 26.5293 2.72713 26.6709 2.6425 26.9275C2.62076 26.9934 2.61357 27.0608 2.61922 27.126C2.62666 27.2109 2.65595 27.2922 2.70318 27.3623C2.74905 27.4302 2.81188 27.4873 2.88809 27.5269L2.27611 29.042H0.985011C0.44101 29.042 0 29.4802 0 30.021C0 30.5615 0.44101 31 0.985011 31H4.98991C5.53391 31 5.97492 30.5615 5.97492 30.021C5.97492 29.4802 5.53391 29.042 4.98991 29.042H4.45432L4.80788 28.1631L4.95589 28.2117C5.22009 28.2981 5.50431 28.1558 5.59078 27.8938C5.67719 27.6316 5.53311 27.3489 5.26897 27.2625L5.1817 27.2339L13.0383 7.70337L13.0435 7.68896L13.0849 7.57617L13.1881 7.62695C13.4372 7.74927 13.7389 7.64795 13.8621 7.40039C13.9853 7.15283 13.8832 6.85303 13.6342 6.73047L13.4917 6.6604C14.9351 3.86816 17.8812 1.95801 21.2775 1.95801C26.098 1.95801 30.0084 5.80591 30.0084 10.5557C30.0084 12.8359 29.1074 14.908 27.6366 16.447L27.4501 16.6421H24.0318C21.6377 16.6421 19.5752 18.3188 19.1007 20.6511L17.9923 26.1001C17.6143 27.9583 19.0433 29.6948 20.9507 29.6948H24.6763C25.2203 30.4829 26.133 31 27.1674 31C28.8345 31 30.186 29.6567 30.186 28C30.186 26.8372 29.5202 25.8286 28.5467 25.3308V18.3154L28.5748 18.2898C30.6815 16.3625 32 13.6101 32 10.5557C32 4.72729 27.2008 0 21.2775 0C17.0976 0 13.4793 2.35376 11.7103 5.78516L11.6425 5.75171C11.3934 5.62915 11.0917 5.73071 10.9685 5.97827C10.8453 6.22559 10.9474 6.52563 11.1964 6.64795L11.2947 6.69629C11.273 6.75073 11.2518 6.80518 11.2309 6.85986C11.2104 6.91406 11.1902 6.96851 11.1706 7.02295L3.26075 26.6045ZM27.5405 25.0227V17.6421H24.0318C22.1165 17.6421 20.4665 18.9834 20.0869 20.8494L18.9783 26.2983C18.7263 27.5371 19.6792 28.6948 20.9507 28.6948H24.23C24.1768 28.4719 24.1485 28.2393 24.1488 28C24.1488 26.4468 25.3366 25.1689 26.8587 25.0154C26.8922 25.012 26.9259 25.009 26.9597 25.0068C26.9925 25.0046 27.0253 25.0029 27.0584 25.002C27.0945 25.0007 27.1309 25 27.1674 25C27.232 25 27.2962 25.002 27.3599 25.0061C27.4116 25.0093 27.463 25.0137 27.514 25.0195L27.5405 25.0227ZM26.0982 29.6948C26.4079 29.8884 26.7744 30 27.1674 30C27.5601 30 27.9264 29.8882 28.2361 29.6948L28.2521 29.6848C28.3567 29.6182 28.4546 29.5422 28.5448 29.458L28.5467 29.4561C28.9364 29.0913 29.1798 28.574 29.1798 28C29.1798 27.426 28.9364 26.9087 28.5467 26.5439L28.5204 26.5195C28.2509 26.2761 27.9131 26.1042 27.5405 26.0344L27.5236 26.0312C27.4079 26.0107 27.2889 26 27.1674 26C27.0979 26 27.0293 26.0034 26.9616 26.0103C25.9469 26.1128 25.155 26.9646 25.155 28C25.155 28.2761 25.2113 28.5393 25.3131 28.7786C25.4746 29.158 25.7507 29.4778 26.0982 29.6948ZM4.17704 27.9563L3.74033 29.042H2.99035L3.51635 27.7397L4.17704 27.9563ZM12.8979 6.36865L12.3041 6.0769C13.9646 2.8584 17.359 0.652588 21.2775 0.652588C26.8332 0.652588 31.3361 5.08691 31.3361 10.5557C31.3361 13.1418 30.3294 15.4963 28.68 17.2605C28.671 17.0032 28.561 16.7712 28.388 16.6016C29.811 14.9805 30.6722 12.8669 30.6722 10.5557C30.6722 5.44629 26.4656 1.30518 21.2775 1.30518C17.6202 1.30518 14.4499 3.36328 12.8979 6.36865ZM28.1736 28C28.1736 28.5522 27.7231 29 27.1674 29C26.6116 29 26.1612 28.5522 26.1612 28C26.1612 27.4478 26.6116 27 27.1674 27C27.7231 27 28.1736 27.4478 28.1736 28Z"/>
  </symbol>

  <symbol id="air-conditioning" viewBox="0 0 32 32">
    <path fill-rule="evenodd" clip-rule="evenodd" d="M1 11.9412H31V11H1V11.9412ZM32 13V11.9412V10H0V11.9412V13V17C0 19.2092 1.79083 21 4 21H28C30.2092 21 32 19.2092 32 17V13ZM27.8961 20H28C29.6569 20 31 18.6567 31 17V13H1V17C1 18.6567 2.34314 20 4 20H4.10388C4.2981 19.0437 4.7998 18 5.89471 18H26.1053C27.2002 18 27.7019 19.0437 27.8961 20ZM5.1297 20H26.8703C26.8286 19.8391 26.7758 19.6821 26.7108 19.5391C26.5084 19.094 26.3081 19 26.1053 19H5.89471C5.69189 19 5.49158 19.094 5.28925 19.5391C5.22418 19.6821 5.17145 19.8391 5.1297 20ZM25.2 17V16H28V17H25.2ZM21 16V17H23.8V16H21Z"/>
  </symbol>

  <symbol id="armchair" viewBox="0 0 32 32">
    <path fill-rule="evenodd" clip-rule="evenodd" d="M24.7742 3.03846H7.22581C6.08562 3.03846 5.16129 3.96841 5.16129 5.11538V16.038L5.16255 16.1232L5.16129 16.2084V17.5769H26.8387V16.2084L26.8374 16.1232L26.8387 16.038V5.11538C26.8387 3.96841 25.9144 3.03846 24.7742 3.03846ZM27.871 17.5769V18.6154V23.8077V24.8462V25.8681C28.8899 25.7409 29.6784 24.8667 29.6784 23.8072V17.8741L30.1781 17.5713C30.6404 17.2914 30.9677 16.756 30.9677 16.1232C30.9677 15.1669 30.2366 14.4615 29.4187 14.4615C28.6205 14.4615 27.9049 15.1334 27.871 16.0547V16.1934V17.5769ZM26.8387 24.8462H5.16129V25.8846H6.19355H25.8064H26.8387V24.8462ZM4.12903 24.8462V23.8077V18.6154V17.5769V16.1934V16.0547C4.09507 15.1334 3.37954 14.4615 2.58128 14.4615C1.76336 14.4615 1.03226 15.1669 1.03226 16.1232C1.03226 16.756 1.35963 17.2914 1.82189 17.5713L2.32164 17.8741V23.8072C2.32164 24.8667 3.11013 25.7409 4.12903 25.8681V24.8462ZM27.871 13.9621V5.11538C27.871 3.39493 26.4845 2 24.7742 2H7.22581C5.5155 2 4.12903 3.39493 4.12903 5.11538V13.9621C3.69777 13.6236 3.16192 13.4231 2.58128 13.4231C1.15568 13.4231 0 14.6319 0 16.1232C0 17.1218 0.518523 17.994 1.28938 18.461V23.8072C1.28938 25.4407 2.539 26.7806 4.12903 26.9119V26.9231V29H5.50536L5.96415 26.9231H26.0358L26.4946 29H27.871V26.9231V26.9119C29.461 26.7806 30.7106 25.4407 30.7106 23.8072V18.461C31.4815 17.994 32 17.1218 32 16.1232C32 14.6319 30.8443 13.4231 29.4187 13.4231C28.8381 13.4231 28.3022 13.6236 27.871 13.9621ZM5.16129 18.6154H26.8387V23.8077H5.16129V18.6154Z" />
  </symbol>

  <symbol id="bath" viewBox="0 0 32 32">
    <path fill-rule="evenodd" clip-rule="evenodd" d="M3 7H2V8H1V9.08545C0.417419 9.29126 0 9.84692 0 10.5C0 11.1663 0.434265 11.731 1.03522 11.9265L1.04108 12C1.43591 16.7861 4.63965 20.7759 9 22.3171V24.0007H10.3333L10.7377 22.7871C11.4704 22.927 12.2266 23 13 23H19C19.7734 23 20.5296 22.927 21.2623 22.7871L21.6667 24.0007H23V22.3171C27.3604 20.7759 30.5641 16.7861 30.9589 12L30.9648 11.9265C31.5657 11.731 32 11.1663 32 10.5C32 9.67163 31.3284 9 30.5 9H3V8H5V7H3ZM2 10H3H30.5C30.7761 10 31 10.2239 31 10.5C31 10.7761 30.7761 11 30.5 11H1.5C1.22388 11 1 10.7761 1 10.5C1 10.2239 1.22388 10 1.5 10H2ZM13 22C7.26196 22 2.55005 17.6064 2.04486 12H29.9551C29.45 17.6064 24.738 22 19 22H13Z" />
  </symbol>

  <symbol id="bathroom-accessories" viewBox="0 0 32 32">
    <path fill-rule="evenodd" clip-rule="evenodd" d="M26.6899 3.12183L26.7434 3.14136L26.7988 3.15479C29.2097 3.73999 31.0001 5.91309 31.0001 8.5C31.0001 11.5366 28.5341 14 25.4957 14C25.4116 14 25.3281 13.998 25.2452 13.9944L25.1896 13.9919L25.1342 13.9956C25.0903 13.9985 25.0456 14 25 14H3C1.89545 14 1 13.1045 1 12C1 10.8955 1.89545 10 3 10H23.5C24.3284 10 25 9.32837 25 8.5C25 7.67163 24.3284 7 23.5 7H3C1.89545 7 1 6.10449 1 5C1 3.89551 1.89545 3 3 3H26C26.1469 3 26.2885 3.01538 26.4235 3.04443C26.5142 3.06396 26.6031 3.09009 26.6899 3.12183ZM27.0346 2.18311C26.905 2.1355 26.7711 2.09644 26.6338 2.06689C26.4295 2.02295 26.2175 2 26 2H3C1.34314 2 0 3.34326 0 5C0 6.65674 1.34314 8 3 8H23.5C23.7761 8 24 8.22388 24 8.5C24 8.77612 23.7761 9 23.5 9H3C1.34314 9 0 10.3433 0 12C0 13.6567 1.34314 15 3 15H25C25.0673 15 25.1342 14.9978 25.2004 14.9934C25.2983 14.9978 25.3967 15 25.4957 15C29.0855 15 32.0001 12.0898 32.0001 8.5C32.0001 5.44019 29.8828 2.87427 27.0346 2.18311ZM5.31018 17.1218L5.25665 17.1414L5.20129 17.1548C2.79034 17.74 1 19.9131 1 22.5C1 25.5366 3.46594 28 6.50439 28C6.5885 28 6.672 27.998 6.75482 27.9944L6.81042 27.9919L6.86591 27.9956C6.90973 27.9985 6.95447 28 7.00006 28H29.0001C30.1046 28 31.0001 27.1045 31.0001 26C31.0001 24.8955 30.1046 24 29.0001 24H8.50006C7.67163 24 7.00006 23.3284 7.00006 22.5C7.00006 21.6716 7.67163 21 8.50006 21H29.0001C30.1046 21 31.0001 20.1045 31.0001 19C31.0001 17.8955 30.1046 17 29.0001 17H6.00006C5.85315 17 5.71161 17.0154 5.5766 17.0444C5.48584 17.064 5.39691 17.0901 5.31018 17.1218ZM5.30865 16.0798L5.36627 16.0669C5.49884 16.0383 5.6347 16.0188 5.77319 16.0085C5.84808 16.0029 5.92371 16 6.00006 16H29.0001C30.6569 16 32.0001 17.3433 32.0001 19C32.0001 20.6567 30.6569 22 29.0001 22H8.50006C8.22394 22 8.00006 22.2239 8.00006 22.5C8.00006 22.7761 8.22394 23 8.50006 23H29.0001C30.6569 23 32.0001 24.3433 32.0001 26C32.0001 27.6567 30.6569 29 29.0001 29H7.00006C6.96985 29 6.9397 28.9995 6.90967 28.9985C6.8728 28.9976 6.83618 28.9958 6.79968 28.9934C6.70178 28.9978 6.60333 29 6.50439 29C2.91455 29 0 26.0898 0 22.5C0 19.4402 2.11731 16.8743 4.96545 16.1831C5.0769 16.1421 5.19147 16.1074 5.30865 16.0798Z" />
  </symbol>

  <symbol id="bidet" viewBox="0 0 32 32">
    <path fill-rule="evenodd" clip-rule="evenodd" d="M7 7H12V4H4V7H1V10H0V15H1V27H19C25.8432 27 31.4515 21.7124 31.9621 15H32V14V10H7V7ZM31 14V11H7H5H4H1V14H31ZM30.9589 15H2V26H19C25.2906 26 30.4508 21.1594 30.9589 15ZM5 10V7V5H11V6H6V10H5ZM2 8H4V10H2V8Z"/>
  </symbol>

  <symbol id="bunk-bed" viewBox="0 0 32 32">
    <path fill-rule="evenodd" clip-rule="evenodd" d="M1 4H0V8V12V20V24V27H1V24H24H25H31V27H32V24V23V21V20V18V17V15V14V12V11V4H31V8H25H24H9C9 6.89551 8.10455 6 7 6H4C2.89545 6 2 6.89551 2 8H1V4ZM31 23V21H25V23H31ZM31 20H25V18H31V20ZM31 17V15H25V17H31ZM25 9H31V11H25V9ZM25 12V14H31V12H25ZM24 9H9H2H1V11H24V9ZM24 12H1V20H2C2 18.8955 2.89545 18 4 18H7C8.10455 18 9 18.8955 9 20H24V12ZM24 21H9H2H1V23H24V21ZM7 7C7.55231 7 8 7.44775 8 8H3C3 7.44775 3.44769 7 4 7H7ZM7 19C7.55231 19 8 19.4478 8 20H3C3 19.4478 3.44769 19 4 19H7Z" />
  </symbol>

  <symbol id="chair" viewBox="0 0 32 32">
    <path fill-rule="evenodd" clip-rule="evenodd" d="M22 4C22 2.34326 20.6569 1 19 1H12C10.3431 1 9 2.34326 9 4V17H22V4ZM12 0C9.79083 0 8 1.79077 8 4V17C6.89545 17 6 17.8955 6 19C6 20.1045 6.89545 21 8 21H8.03571V32H9.39282L10.0149 21H20.9851L21.6072 32H22.9643V21H23C24.1046 21 25 20.1045 25 19C25 17.8955 24.1046 17 23 17V4C23 1.79077 21.2092 0 19 0H12ZM23 18H8C7.44769 18 7 18.4478 7 19C7 19.5522 7.44769 20 8 20H8.03571H10.0714H20.9286H22.9643H23C23.5523 20 24 19.5522 24 19C24 18.4478 23.5523 18 23 18Z" />
  </symbol>

  <symbol id="chest-of-drawers" viewBox="0 0 32 32">
    <path fill-rule="evenodd" clip-rule="evenodd" d="M26 22V28H1V22H26ZM1 21H26V15H1V21ZM1 14H26V8H1V14ZM26 1V7H1V1H26ZM27 0V29H26V32H1V29H0V0H27ZM25 29V31H2V29H25ZM11 4.5V3.5H16V4.5H11ZM11 11.5V10.5H16V11.5H11ZM11 18.5V17.5H16V18.5H11ZM11 25.5V24.5H16V25.5H11Z" />
  </symbol>

  <symbol id="cupboard" viewBox="0 0 32 32">
    <path fill-rule="evenodd" clip-rule="evenodd" d="M15 1H5V29H15V1ZM15 0H16H28V30H27V32H5V30H4V0H15ZM26 30H16H15H6V31H26V30ZM27 29V1H16V29H27ZM14 13H13V17H14V13ZM17 13H18V17H17V13Z" />
  </symbol>

  <symbol id="dishes" viewBox="0 0 32 32">
    <path fill-rule="evenodd" clip-rule="evenodd" d="M28.8119 15.5001C28.8119 16.0067 28.7861 16.507 28.7357 17.0001H29.5803L29.2961 19.5002H29.4603C30.863 19.5002 32 20.6195 32 22.0002V24.0707C32 25.0351 31.4366 25.9133 30.5522 26.3278L28.4057 27.334L28.1027 30.0002H20.6592L20.6117 29.5828L16.8958 30.1765V31H5.21546V30.1765L0.994172 29.5019V26.9768H5.59983C2.19333 24.3247 0 20.1703 0 15.5001C0 7.492 6.44978 1 14.406 1C22.3621 1 28.8119 7.492 28.8119 15.5001ZM28.5387 26.164L30.1155 25.425C30.6461 25.1762 30.9841 24.6494 30.9841 24.0707V22.0002C30.9841 21.1718 30.3019 20.5002 29.4603 20.5002H29.1825L28.5387 26.164ZM20.3175 18.0001H28.4444L27.1941 29.0002H21.5678L20.3175 18.0001ZM27.7547 16.5685C27.7436 16.713 27.7301 16.8571 27.7144 17.0001H23.1643C23.179 16.9127 23.1925 16.8251 23.2046 16.7369C23.2331 16.5302 23.2546 16.3212 23.2688 16.1102C23.2823 15.9086 23.2891 15.7052 23.2891 15.5001C23.2891 14.2696 23.0412 13.0963 22.5924 12.0284C21.2628 8.86408 18.1705 6.62578 14.5418 6.57085L14.4056 6.56987C9.58507 6.56987 5.67789 10.4232 5.52666 15.212C5.52369 15.3077 5.52214 15.4037 5.52214 15.5001C5.52214 15.6678 5.52679 15.8346 5.5359 16.0001H4.06349C4.06349 16.3392 4.08482 16.673 4.12612 17.0001C4.16921 17.3412 4.23407 17.6752 4.31913 18.0001H4.06349C4.06349 18.1825 4.06858 18.3637 4.07862 18.5431C4.08724 18.6967 4.09939 18.849 4.11514 19.0001C4.12791 19.1229 4.14304 19.245 4.16047 19.3661C4.17095 19.4391 4.18223 19.5116 4.19432 19.5839C4.21782 19.724 4.2443 19.8627 4.27375 20.0002H4.06349C4.06349 20.0756 4.06436 20.1508 4.06603 20.226C4.0687 20.3434 4.07341 20.4604 4.08017 20.5766C4.08848 20.7187 4.09983 20.86 4.11415 21.0002C4.35566 23.3664 5.44333 25.4282 7.0124 26.7578C3.40179 24.3422 1.01587 20.2055 1.01587 15.5001C1.01587 8.02325 7.03199 2.00001 14.406 2.00001C21.7798 2.00001 27.796 8.02325 27.796 15.5001C27.796 15.7323 27.7902 15.963 27.7787 16.1923L27.7687 16.3705L27.7547 16.5685ZM22.2733 15.5001C22.2733 16.0133 22.225 16.5148 22.1329 17.0001H19.1876H19.1815L19.308 18.1132L19.6636 21.3993C19.1448 21.8696 18.5642 22.2707 17.9358 22.5895C18.0779 22.0795 18.1791 21.548 18.2351 21.0002C18.2496 20.8571 18.2611 20.7131 18.2694 20.568C18.2802 20.3803 18.2857 20.1911 18.2857 20.0002H18.0753C18.1453 19.674 18.1985 19.3402 18.2339 19.0001C18.268 18.6723 18.2856 18.3385 18.2856 18.0001H18.0301C18.1151 17.6752 18.1799 17.3412 18.223 17.0001L18.2405 16.85L18.2504 16.7509L18.261 16.6283L18.2671 16.5455C18.2793 16.3654 18.2856 16.1835 18.2856 16.0001H6.55339C6.54836 15.9188 6.54458 15.837 6.54198 15.755C6.53931 15.6703 6.53801 15.5853 6.53801 15.5001C6.53801 15.2257 6.55184 14.9547 6.57875 14.6876C6.91183 11.3846 9.25322 8.69049 12.3416 7.84576C12.9998 7.66583 13.6918 7.56988 14.4056 7.56988C14.9474 7.56988 15.4766 7.6253 15.988 7.73052C19.0206 8.35528 21.4255 10.7401 22.09 13.7899C22.21 14.3404 22.2733 14.9127 22.2733 15.5001ZM9.29557 26.9768H13.0536C15.182 26.1423 16.8888 23.8781 17.2139 21.0002H5.13529C5.46044 23.8781 7.16716 26.1423 9.29557 26.9768ZM15.0652 26.9768H20.2671L19.7936 22.601C19.3129 22.9701 18.7935 23.2912 18.2422 23.5568L18.2387 23.5585L17.5085 23.9416L17.4722 23.8745C16.9072 25.133 16.0755 26.2014 15.0652 26.9768ZM15.88 29.9255V29.3257L20.1012 28.6511V27.9768H13.2395L13.1723 28.0002H9.1769L9.10969 27.9768H7.06089H2.01004V28.6511L6.23134 29.3257V30H15.88V29.9255ZM17.0342 20.0006H5.31492C5.23661 19.6762 5.17677 19.3422 5.13697 19.0001H17.2121C17.1723 19.3422 17.1125 19.6762 17.0342 20.0006ZM16.9758 18.0006C17.0736 17.6779 17.1484 17.3436 17.1982 17.0001H5.15098C5.18074 17.2057 5.21949 17.4078 5.26674 17.6063C5.28522 17.6837 5.305 17.7606 5.32602 17.8368C5.34115 17.8917 5.35696 17.9464 5.37339 18.0006H16.9758Z" />
  </symbol>

  <symbol id="dishwasher" viewBox="0 0 32 32">
    <path fill-rule="evenodd" clip-rule="evenodd" d="M5 1H27V6H5V1ZM4 6V0H28V6V7V26V27V32H4V27V26V7V6ZM5 7V26H27V7H5ZM5 31V27H27V31H5ZM11 3V4H21V3H11ZM7 10V9H25V10H7ZM10 3H9V4H10V3ZM22 3H23V4H22V3Z" />
  </symbol>

  <symbol id="double-bed" viewBox="0 0 32 32">
    <path fill-rule="evenodd" clip-rule="evenodd" d="M5 7H27C27.5523 7 28 7.44775 28 8V15H27V13C27 12.4478 26.5522 12 26 12H19.0625C18.5102 12 18.0625 12.4478 18.0625 13V15H13.9375V13C13.9375 12.4478 13.4897 12 12.9375 12H6C5.44769 12 5 12.4478 5 13V15H4V8C4 7.44775 4.44769 7 5 7ZM19.0625 15H26V13H19.0625V15ZM18.0625 16H13.9375H5H3C1.89545 16 1 16.8955 1 18V19H31V18C31 16.8955 30.1046 16 29 16H27H18.0625ZM12.9375 13V15H6V13H12.9375ZM3 15V8C3 6.89551 3.89545 6 5 6H27C28.1046 6 29 6.89551 29 8V15C30.6569 15 32 16.3433 32 18V19V20V23H30V25H28.6667L28 23H4L3.33331 25H2V23H0V20V19V18C0 16.3433 1.34314 15 3 15ZM1 22V20H31V22H1Z" />
  </symbol>

  <symbol id="dryer" viewBox="0 0 32 32">
    <path fill-rule="evenodd" clip-rule="evenodd" d="M7.50011 6H7.41778L-0.660106 8.80225C-0.921641 8.89307 -1.06196 9.18408 -0.973521 9.45239C-0.88502 9.7207 -0.601268 9.8645 -0.339671 9.77393L7.50011 7.0542V16.2563H14.0915L6.28057 24.9744H4.50017C4.22405 24.9744 4.00017 25.2041 4.00017 25.4873C4.00017 25.7705 4.22405 26 4.50017 26H6.71978L15.5 16.2L24.2802 26H26.4998C26.7759 26 26.9998 25.7703 26.9998 25.4871C26.9998 25.2039 26.7759 24.9744 26.4998 24.9744H24.7194L16.1791 15.4421L17.2873 14.2051H19.5001V11.7354L20.5001 10.6194V14.2051H23.5001V7.0542L31.3396 9.77393C31.6012 9.8645 31.885 9.7207 31.9735 9.45239C32.062 9.18408 31.9216 8.89307 31.6601 8.80225L23.5822 6H23.5001H20.5001H19.5001H16.5001H14.5001H7.50011ZM20.5001 9.10327V7.02563H19.5001V10.2195L20.5001 9.10327ZM16.5001 13.5681V7.02563H14.5001V13.5681L15.5 14.6843L16.5001 13.5681ZM14.821 15.4421L14.5001 15.084V15.8003L14.821 15.4421ZM22.5001 7.02563H21.5001V13.1794H22.5001V7.02563ZM17.5001 13.1794V7.02563H18.5001V13.1794H17.5001ZM13.5001 7.02563H8.50011V15.2307H13.5001V7.02563Z" />
  </symbol>

  <symbol id="hair-dryer" viewBox="0 0 32 32">
    <path fill-rule="evenodd" clip-rule="evenodd" d="M8.28891 4.24686L8.22749 4.22712C7.7881 4.08592 7.3237 3.99828 6.8413 3.97144L6.83976 3.97135L6.79237 3.96888C6.70544 3.96498 6.61791 3.96302 6.52955 3.96302C3.48351 3.96302 0.984613 6.42599 0.984613 9.49988C0.984613 11.451 1.99362 13.1617 3.51364 14.1477L4.06049 14.5024L3.93627 15.1325C3.92482 15.1906 3.91661 15.2503 3.91187 15.3118L3.09166 25.9258C3.00362 27.0649 3.92502 28.037 5.09337 28.037C6.20193 28.037 7.10053 27.1582 7.1007 26.0741L7.09878 18.2009H7.09741L7.10182 15.0883L22.6466 12.112V6.89392L8.28891 4.24686ZM23.6312 6.09547V12.9048L8.08531 15.8813L8.08339 17.2379L8.08515 17.2379C8.42773 17.2388 8.70526 17.5107 8.70526 17.8459V17.868C8.70526 17.9963 8.66454 18.1155 8.59503 18.2136C8.48278 18.3721 8.29546 18.476 8.08339 18.476V19.0952C8.29546 19.0952 8.48278 19.1991 8.59503 19.3576C8.66454 19.4557 8.70526 19.5748 8.70526 19.7032V19.7253C8.70526 19.905 8.62534 20.0667 8.49841 20.1782C8.38841 20.2745 8.24314 20.3332 8.08381 20.3333L8.08531 26.0738C8.08531 27.69 6.74577 29 5.09337 29C3.35203 29 1.9786 27.5512 2.10985 25.8533L2.93004 15.2394C2.93761 15.1411 2.95083 15.0447 2.96946 14.9502C1.18173 13.7907 0 11.7823 0 9.49988C0 5.91021 2.92343 3 6.52955 3C6.63412 3 6.73796 3.00235 6.84133 3.00705L6.89541 3.00987C7.4644 3.04138 8.01392 3.14483 8.53483 3.31223L23.6312 6.09547Z" />
    <path fill-rule="evenodd" clip-rule="evenodd" d="M6.5306 13.1799C8.54633 13.1799 10.2099 11.5485 10.2099 9.50003C10.2099 7.4516 8.54633 5.82016 6.5306 5.82016C4.51486 5.82016 2.85125 7.4516 2.85125 9.50003C2.85125 11.5485 4.51486 13.1799 6.5306 13.1799ZM6.5306 14.1429C9.10643 14.1429 11.1945 12.0642 11.1945 9.50003C11.1945 6.93583 9.10643 4.85714 6.5306 4.85714C3.95476 4.85714 1.86664 6.93583 1.86664 9.50003C1.86664 12.0642 3.95476 14.1429 6.5306 14.1429Z" />
    <path fill-rule="evenodd" clip-rule="evenodd" d="M26.7352 6.6541C26.3686 6.64803 25.8874 6.75749 25.2059 7.17744C24.9759 7.3192 24.6719 7.25173 24.527 7.02673C24.382 6.80174 24.451 6.50443 24.6811 6.36266C25.4765 5.87247 26.1441 5.68116 26.7518 5.69122C27.3517 5.70115 27.8338 5.90859 28.2294 6.08998C28.2636 6.10565 28.297 6.12104 28.3297 6.13612C28.6954 6.30463 28.9755 6.4337 29.2994 6.475C29.6239 6.51637 30.0312 6.47016 30.6117 6.15406C30.8493 6.0247 31.1491 6.10819 31.2813 6.34054C31.4136 6.57289 31.3282 6.8661 31.0907 6.99546C30.3583 7.39424 29.74 7.50234 29.1722 7.42994C28.686 7.36795 28.2658 7.17276 27.9216 7.01287C27.8839 6.9954 27.8472 6.97834 27.8114 6.96192C27.4275 6.78588 27.1096 6.6603 26.7352 6.6541Z" />
    <path fill-rule="evenodd" clip-rule="evenodd" d="M27.3916 9.33154C27.025 9.32548 26.5438 9.43494 25.8624 9.85489C25.6323 9.99665 25.3283 9.92917 25.1834 9.70418C25.0385 9.47919 25.1075 9.18187 25.3375 9.04011C26.1329 8.54991 26.8005 8.35861 27.4083 8.36867C28.0081 8.3786 28.4903 8.58604 28.8858 8.76743C28.92 8.7831 28.9534 8.79849 28.9861 8.81357C29.3518 8.98208 29.6319 9.11114 29.9559 9.15245C30.2803 9.19381 30.6876 9.1476 31.2681 8.83151C31.5057 8.70215 31.8055 8.78564 31.9377 9.01798C32.07 9.25033 31.9846 9.54355 31.7471 9.67291C31.0148 10.0717 30.3965 10.1798 29.8286 10.1074C29.3424 10.0454 28.9222 9.85021 28.578 9.69032C28.5404 9.67284 28.5037 9.65578 28.4679 9.63937C28.0839 9.46333 27.7661 9.33774 27.3916 9.33154Z" />
    <path fill-rule="evenodd" clip-rule="evenodd" d="M26.7352 11.9316C26.3686 11.9256 25.8874 12.035 25.2059 12.455C24.9759 12.5967 24.6719 12.5293 24.527 12.3043C24.382 12.0793 24.451 11.782 24.6811 11.6402C25.4765 11.15 26.1441 10.9587 26.7518 10.9688C27.3517 10.9787 27.8338 11.1861 28.2294 11.3675C28.2636 11.3832 28.297 11.3986 28.3297 11.4137C28.6954 11.5822 28.9755 11.7112 29.2994 11.7525C29.6239 11.7939 30.0312 11.7477 30.6117 11.4316C30.8493 11.3022 31.1491 11.3857 31.2813 11.6181C31.4136 11.8504 31.3282 12.1436 31.0907 12.273C30.3583 12.6718 29.74 12.7799 29.1722 12.7075C28.686 12.6455 28.2658 12.4503 27.9216 12.2904C27.8839 12.2729 27.8472 12.2559 27.8114 12.2395C27.4275 12.0634 27.1096 11.9378 26.7352 11.9316Z" />
  </symbol>

  <symbol id="iron" viewBox="0 0 32 32">
    <path fill-rule="evenodd" clip-rule="evenodd" d="M20.3831 9.67519L26.534 9.11945C28.9243 8.90357 30.9753 10.9351 30.9753 13.5192V20.763H2.20678C4.28175 17.6575 6.92131 15.1028 9.92421 13.2229L10.434 12.9036V12.8908L11.2695 12.439C14.0833 10.9176 17.1712 9.96529 20.3831 9.67519ZM26.4483 8.01971C29.4364 7.74966 32 10.2893 32 13.5192V21.8667V22.9333C32 23.5224 31.5379 24 30.9677 24H1.03226C0.462135 24 0 23.5224 0 22.9333V21.8667C0 21.2776 0.462135 20.8 1.03226 20.8H1.04095C1.05941 20.6622 1.10786 20.525 1.19084 20.3976C3.37809 17.0382 6.19361 14.2817 9.40934 12.2684V11.589C9.40934 11.1689 9.72543 10.8286 10.1152 10.8286C10.2604 10.8286 10.3954 10.8757 10.5076 10.9564C10.5529 10.9893 10.5946 11.0275 10.6316 11.0705C10.6737 11.1189 10.7099 11.1736 10.739 11.2327C10.7725 11.3005 10.7967 11.3744 10.8098 11.4525C11.1194 11.2851 11.4321 11.1244 11.748 10.9702C14.42 9.66685 17.3071 8.84549 20.2975 8.57518L26.4483 8.01971ZM30.9677 21.8667H1.9002H1.03226V22.9333H30.9677V21.8667ZM14.7097 11.8395C12.1499 11.8395 10.9963 15.2919 12.9693 17.0489C13.1261 17.1885 13.2962 17.3086 13.4764 17.4067C13.5576 17.451 13.6408 17.4909 13.7257 17.526C13.8412 17.5742 13.959 17.6132 14.0783 17.6437L14.8364 17.7203L16.3432 17.6455L16.4997 16.7981C16.5955 16.2802 17.0183 15.8971 17.5045 15.8971H20.6853C21.1124 15.8971 21.4916 16.1914 21.6426 16.6203L21.9061 17.3685L27.7243 17.0786C29.0229 17.014 30.045 15.8609 30.045 14.4606C30.045 13.0132 28.9559 11.8395 27.6119 11.8395H14.7097ZM17.5045 14.7934C16.5106 14.7934 15.6821 15.5684 15.4947 16.5828L13.6222 16.1981C12.3895 15.1005 13.1102 12.9432 14.7097 12.9432H27.6119C28.3898 12.9432 29.0203 13.6226 29.0203 14.4606C29.0203 15.2713 28.4287 15.9388 27.6769 15.9763L22.6007 16.2289C22.3065 15.3934 21.5599 14.7934 20.6853 14.7934H17.5045Z" />
  </symbol>

  <symbol id="ironing-board" viewBox="0 0 32 32">
    <path fill-rule="evenodd" clip-rule="evenodd" d="M8.2832 0.0544434C8.26367 0.0788574 8.25201 0.109619 8.25201 0.142822V7.23291C8.25201 7.26611 8.26355 7.29663 8.2829 7.32056C8.30951 7.354 8.35101 7.37549 8.39758 7.37549C8.41461 7.37549 8.43097 7.37256 8.44617 7.36743C8.45642 7.36377 8.46619 7.35913 8.47522 7.35352C8.48108 7.34985 8.48669 7.3457 8.492 7.34131L8.50244 7.33179C8.50879 7.32544 8.51453 7.3186 8.51953 7.31104C8.52832 7.29785 8.53491 7.2832 8.53894 7.26758C8.54175 7.25659 8.54321 7.24487 8.54321 7.23291V0.142822C8.54321 0.0639648 8.47809 0 8.39758 0C8.3512 0 8.30988 0.0212402 8.2832 0.0544434ZM5.42389 4.48682L5.32074 5.79272C5.25323 6.64722 5.94299 7.37695 6.81812 7.37695H8.10834V0.398438C8.10834 0.235596 7.91797 0.143311 7.78571 0.241699C7.09082 0.759277 6.52728 1.41187 6.12335 2.14844C6.10052 2.13721 6.07477 2.13062 6.04742 2.13062H5.7995C5.70715 2.13062 5.6322 2.20386 5.6322 2.29443C5.6322 2.33838 5.6496 2.37793 5.67804 2.40723C5.70862 2.43872 5.75177 2.4585 5.7995 2.4585H5.96521C5.66589 3.09082 5.47992 3.77661 5.42389 4.48682ZM6.03503 3.3667C6.0224 2.96997 6.53918 2.79395 6.7807 3.11255C6.83716 3.18677 6.86584 3.27808 6.86194 3.37085L6.85468 3.54321C6.65546 3.58276 6.50543 3.75562 6.50543 3.9624V4.79688C6.50543 4.979 6.62164 5.13452 6.78516 5.19629L6.73438 6.40137C6.7276 6.55981 6.59448 6.68481 6.43256 6.68481C6.33679 6.68481 6.25116 6.64111 6.19574 6.57275C6.1568 6.52441 6.13281 6.46411 6.13068 6.39819L6.03503 3.3667ZM30.1124 7.38159L21.6053 7.38086L12.5676 7.38159H12.5612L4.01959 7.38086H0V10.3333L3.01471 10.334H9.80597L12.5612 13.752V18.6985H16.6693L16.6866 18.7192L7.29785 30.0159H5.52692C5.24945 30.0159 5.02448 30.2361 5.02448 30.5078C5.02448 30.7795 5.24945 31 5.52692 31H7.77557L17.3344 19.4988L26.8933 31H29.142C29.4194 31 29.6444 30.7798 29.6444 30.5081C29.6444 30.2361 29.4194 30.0159 29.142 30.0159H27.371L17.9822 18.7195L17.9996 18.6985H21.6053V13.9646L25.1989 10.0054L30.0827 10.0059L31.2423 9.71753C32.1937 9.48096 32.27 8.18604 31.3526 7.84399L30.1124 7.38159ZM12.5612 12.1636V10.334H11.0862L12.5612 12.1636ZM23.8545 10.0054L21.6053 12.4834V10.0051L23.8545 10.0054ZM21.6053 9.021L29.9572 9.02173L30.9951 8.76367L29.9275 8.36572L21.6053 8.36499V9.021ZM12.5612 8.36572H4.01959V9.34985H12.5612V8.36572ZM13.5661 10.334V17.7144H20.6004V10.0051V8.85718H13.5661V10.334ZM1.00488 8.36499H3.01471V9.34912H1.00488V8.36499Z" />
  </symbol>

  <symbol id="jacuzzi" viewBox="0 0 32 32">
    <path fill-rule="evenodd" clip-rule="evenodd" d="M1 7H31V8H1V7ZM0 7C0 6.44775 0.447693 6 1 6H31C31.5523 6 32 6.44775 32 7V8.03589V9V25.0002L25 25H7L0 25.0002V9V8.03589V7ZM31 24.0002H25V20H23V16H9V20H7V24.0002H1V9.03589H31V24.0002ZM10 20H22V17H10V20ZM9 21H8V24H24V21H23H9ZM4.47369 12C4.71863 12 4.94733 11.793 4.94733 11.5C4.94733 11.207 4.71863 11 4.47369 11C4.2287 11 4 11.207 4 11.5C4 11.793 4.2287 12 4.47369 12ZM4.47369 13C5.28754 13 5.94733 12.3284 5.94733 11.5C5.94733 10.6716 5.28754 10 4.47369 10C3.65979 10 3 10.6716 3 11.5C3 12.3284 3.65979 13 4.47369 13ZM27.9473 11.5C27.9473 11.793 27.7186 12 27.4737 12C27.2287 12 27 11.793 27 11.5C27 11.207 27.2287 11 27.4737 11C27.7186 11 27.9473 11.207 27.9473 11.5ZM28.9473 11.5C28.9473 12.3284 28.2875 13 27.4737 13C26.6598 13 26 12.3284 26 11.5C26 10.6716 26.6598 10 27.4737 10C28.2875 10 28.9473 10.6716 28.9473 11.5Z" />
  </symbol>

  <symbol id="kitchen-set" viewBox="0 0 32 32">
    <path fill-rule="evenodd" clip-rule="evenodd" d="M1 1H10V2H1V1ZM0 2V0H11V2V3V11H0V3V2ZM1 3V10H10V3H1ZM22 3V10H31V3H22ZM32 11V3V2V0H21V2V3V11H32ZM31 1V2H22V1H31ZM15 1H17V3H15V1ZM14 3L12 9H20L18 3V0H14V3ZM14.7208 4L13.3875 8H18.6125L17.2792 4H14.7208ZM8 9H9V6H8V9ZM30 9H29V6H30V9ZM1 31H10V23H1V31ZM0 23V32H10H11H21H22H32V23V22V19H21.9999H21H11H9.99994H0V22V23ZM22 23H31V31H22V23ZM11 23H21V31H11V23ZM31 20V22H22V20H31ZM1 22H9.99994L10 20H1V22ZM10.9999 20L11 22H20.9999V20H10.9999ZM13 25H19V29H13V25ZM12 30V24H20V30H12ZM9 27H8V24H9V27ZM29 27H30V24H29V27ZM4 21.45V20.45H7V21.45H4ZM25 20.5V21.5H28V20.5H25ZM13 21.5C13.2761 21.5 13.5 21.2761 13.5 21C13.5 20.7239 13.2761 20.5 13 20.5C12.7239 20.5 12.5 20.7239 12.5 21C12.5 21.2761 12.7239 21.5 13 21.5ZM15.5 21C15.5 21.2761 15.2761 21.5 15 21.5C14.7239 21.5 14.5 21.2761 14.5 21C14.5 20.7239 14.7239 20.5 15 20.5C15.2761 20.5 15.5 20.7239 15.5 21ZM17 21.5C17.2761 21.5 17.5 21.2761 17.5 21C17.5 20.7239 17.2761 20.5 17 20.5C16.7239 20.5 16.5 20.7239 16.5 21C16.5 21.2761 16.7239 21.5 17 21.5ZM19.5 21C19.5 21.2761 19.2761 21.5 19 21.5C18.7239 21.5 18.5 21.2761 18.5 21C18.5 20.7239 18.7239 20.5 19 20.5C19.2761 20.5 19.5 20.7239 19.5 21Z" />
  </symbol>

  <symbol id="microwave" viewBox="0 0 32 32">
    <path fill-rule="evenodd" clip-rule="evenodd" d="M24 6H1V24H24V6ZM24 5H0V25H1V27H2L3 25H24H25H29L30 27H31V25H32V5H25H24ZM31 6H25V24H31V6ZM22 22V8H3V22H22ZM23 7H2V23H23V7ZM29 22V21H27V22H29ZM30 20H26V23H30V20ZM26 18V19H30V18H26ZM26 16V17H30V16H26ZM26 14V15H30V14H26ZM28 11C28.5523 11 29 10.5522 29 10C29 9.44775 28.5523 9 28 9C27.4477 9 27 9.44775 27 10C27 10.5522 27.4477 11 28 11ZM28 12C29.1046 12 30 11.1045 30 10C30 8.89551 29.1046 8 28 8C26.8954 8 26 8.89551 26 10C26 11.1045 26.8954 12 28 12Z" />
  </symbol>

  <symbol id="multicooker" viewBox="0 0 32 32">
    <path fill-rule="evenodd" clip-rule="evenodd" d="M30.9677 5.33333V6.4H1.03226V5.33333C1.03226 2.97708 2.88092 1.06667 5.16129 1.06667H26.8387C29.1191 1.06667 30.9677 2.97708 30.9677 5.33333ZM0 6.4V5.33333C0 2.38802 2.3108 0 5.16129 0H26.8387C29.6892 0 32 2.38802 32 5.33333V6.4V7.46667V27.7333C32 28.5229 31.5848 29.2122 30.9677 29.5813V32H28.4757L26.4112 29.8667H5.58884L3.52432 32H1.03226V29.5813C0.415197 29.2122 0 28.5229 0 27.7333V7.46667V6.4ZM1.03226 7.46667V27.7333C1.03226 28.3224 1.49439 28.8 2.06452 28.8H6.62109H25.3789H29.9355C30.5056 28.8 30.9677 28.3224 30.9677 27.7333V7.46667H1.03226ZM2.06452 30.9333V29.8667H4.12903L3.09677 30.9333H2.06452ZM28.9032 30.9333L27.871 29.8667H29.9355V30.9333H28.9032ZM22.7097 20.2667C22.7097 20.8557 22.2475 21.3333 21.6774 21.3333C21.1073 21.3333 20.6452 20.8557 20.6452 20.2667C20.6452 19.6776 21.1073 19.2 21.6774 19.2C22.2475 19.2 22.7097 19.6776 22.7097 20.2667ZM17.5484 21.3333C18.1185 21.3333 18.5806 20.8557 18.5806 20.2667C18.5806 19.6776 18.1185 19.2 17.5484 19.2C16.9783 19.2 16.5161 19.6776 16.5161 20.2667C16.5161 20.8557 16.9783 21.3333 17.5484 21.3333ZM13.4194 20.2667C13.4194 20.8557 12.9572 21.3333 12.3871 21.3333C11.817 21.3333 11.3548 20.8557 11.3548 20.2667C11.3548 19.6776 11.817 19.2 12.3871 19.2C12.9572 19.2 13.4194 19.6776 13.4194 20.2667ZM14.4516 20.2667C14.4516 21.4448 13.5273 22.4 12.3871 22.4C11.2469 22.4 10.3226 21.4448 10.3226 20.2667C10.3226 19.0885 11.2469 18.1333 12.3871 18.1333C13.5273 18.1333 14.4516 19.0885 14.4516 20.2667ZM21.6774 10.6667H10.3226V14.9333H21.6774V10.6667ZM9.29032 9.6V16H22.7097V9.6H9.29032Z" />
  </symbol>

  <symbol id="oven" viewBox="0 0 32 32">
    <path fill-rule="evenodd" clip-rule="evenodd" d="M1 1H31V28H1V1ZM0 28V0H32V28V29V32H0V29V28ZM1 29V31H31V29H1ZM4 7H28V25H4V7ZM3 26V6H29V26H3ZM28 3H4V4H28V3ZM3 2V5H29V2H3Z" />
  </symbol>

  <symbol id="plate" viewBox="0 0 32 32">
    <path fill-rule="evenodd" clip-rule="evenodd" d="M2 1H30C30.5523 1 31 1.44775 31 2V27H1V2C1 1.44775 1.44769 1 2 1ZM0 27V2C0 0.895508 0.895447 0 2 0H30C31.1046 0 32 0.895508 32 2V27V28V30C32 31.1045 31.1046 32 30 32H2C0.895447 32 0 31.1045 0 30V28V27ZM1 28V30C1 30.5522 1.44769 31 2 31H30C30.5523 31 31 30.5522 31 30V28H1ZM9.33331 11.6667C11.7266 11.6667 13.6667 9.72656 13.6667 7.33325C13.6667 4.94019 11.7266 3 9.33331 3C6.94012 3 5 4.94019 5 7.33325C5 9.72656 6.94012 11.6667 9.33331 11.6667ZM9.33331 12.6667C12.2789 12.6667 14.6667 10.2788 14.6667 7.33325C14.6667 4.3877 12.2789 2 9.33331 2C6.38782 2 4 4.3877 4 7.33325C4 10.2788 6.38782 12.6667 9.33331 12.6667ZM26.9987 7.33325C26.9987 9.72656 25.0586 11.6667 22.6653 11.6667C20.2722 11.6667 18.332 9.72656 18.332 7.33325C18.332 4.94019 20.2722 3 22.6653 3C25.0586 3 26.9987 4.94019 26.9987 7.33325ZM27.9987 7.33325C27.9987 10.2788 25.6109 12.6667 22.6653 12.6667C19.7198 12.6667 17.332 10.2788 17.332 7.33325C17.332 4.3877 19.7198 2 22.6653 2C25.6109 2 27.9987 4.3877 27.9987 7.33325ZM9.66534 22.7039C11.5063 22.7039 12.9987 21.2114 12.9987 19.3704C12.9987 17.5295 11.5063 16.0371 9.66534 16.0371C7.8244 16.0371 6.33203 17.5295 6.33203 19.3704C6.33203 21.2114 7.8244 22.7039 9.66534 22.7039ZM9.66534 23.7039C12.0586 23.7039 13.9987 21.7637 13.9987 19.3704C13.9987 16.9773 12.0586 15.0371 9.66534 15.0371C7.27216 15.0371 5.33203 16.9773 5.33203 19.3704C5.33203 21.7637 7.27216 23.7039 9.66534 23.7039ZM25.6667 19.3704C25.6667 21.2114 24.1743 22.7039 22.3333 22.7039C20.4924 22.7039 19 21.2114 19 19.3704C19 17.5295 20.4924 16.0371 22.3333 16.0371C24.1743 16.0371 25.6667 17.5295 25.6667 19.3704ZM26.6667 19.3704C26.6667 21.7637 24.7266 23.7039 22.3333 23.7039C19.9401 23.7039 18 21.7637 18 19.3704C18 16.9773 19.9401 15.0371 22.3333 15.0371C24.7266 15.0371 26.6667 16.9773 26.6667 19.3704ZM11 30.666C11.5523 30.666 12 30.2183 12 29.666C12 29.1138 11.5523 28.666 11 28.666C10.4477 28.666 10 29.1138 10 29.666C10 30.2183 10.4477 30.666 11 30.666ZM15.332 29.666C15.332 30.2183 14.8843 30.666 14.332 30.666C13.7797 30.666 13.332 30.2183 13.332 29.666C13.332 29.1138 13.7797 28.666 14.332 28.666C14.8843 28.666 15.332 29.1138 15.332 29.666ZM17.668 30.666C18.2203 30.666 18.668 30.2183 18.668 29.666C18.668 29.1138 18.2203 28.666 17.668 28.666C17.1157 28.666 16.668 29.1138 16.668 29.666C16.668 30.2183 17.1157 30.666 17.668 30.666ZM22 29.666C22 30.2183 21.5523 30.666 21 30.666C20.4477 30.666 20 30.2183 20 29.666C20 29.1138 20.4477 28.666 21 28.666C21.5523 28.666 22 29.1138 22 29.666Z" />
  </symbol>

  <symbol id="refrigerator" viewBox="0 0 32 32">
    <path fill-rule="evenodd" clip-rule="evenodd" d="M10 1H22V19H10V1ZM9 19V1C9 0.447754 9.44769 0 10 0H22C22.5523 0 23 0.447754 23 1V19V20V32H9V20V19ZM10 20V31H22V20H10ZM12 14H11V17H12V14ZM11 22H12V25H11V22Z" />
  </symbol>

  <symbol id="shower" viewBox="0 0 32 32">
    <path fill-rule="evenodd" clip-rule="evenodd" d="M27 0H4V1H15H16H27V0ZM3 -1V1V2V28V29V32H28V29V28V2V1V-1H3ZM4 28V2H15V28H6V5.98682C6 5.43359 6.29828 4.89453 6.79163 4.47803C7.28583 4.06055 7.92426 3.8125 8.5 3.8125C9.07574 3.8125 9.71417 4.06055 10.2084 4.47803C10.7017 4.89453 11 5.43359 11 5.98682V7.05713C10.4174 7.19434 10 7.56445 10 8H13C13 7.56445 12.5826 7.19434 12 7.05713V5.98682C12 5.06299 11.5063 4.26514 10.8537 3.71387C10.2019 3.16357 9.34033 2.8125 8.5 2.8125C7.65967 2.8125 6.7981 3.16357 6.1463 3.71387C5.49365 4.26514 5 5.06299 5 5.98682V28H4ZM16 28V2H27V28H16ZM27 29H16H15H4V31H27V29ZM17 13H18V16H17V13ZM14 13H13V16H14V13ZM9 10V8.93457H14V10H9Z" />
  </symbol>

  <symbol id="single-bed" viewBox="0 0 32 32">
    <path fill-rule="evenodd" clip-rule="evenodd" d="M27 4H5C4.44769 4 4 4.44775 4 5V13H9V10C9 8.89551 9.89545 8 11 8H21C22.1046 8 23 8.89551 23 10V13H28V5C28 4.44775 27.5523 4 27 4ZM23 14H9H3C1.89545 14 1 14.8955 1 16V20H31V16C31 14.8955 30.1046 14 29 14H23ZM22 13V10C22 9.44775 21.5523 9 21 9H11C10.4477 9 10 9.44775 10 10V13H22ZM3 5V13C1.34314 13 0 14.3433 0 16V20V21V25H3V28H5L5.75 25H26.25L27 28H29V25H32V21V20V16C32 14.3433 30.6569 13 29 13V5C29 3.89551 28.1046 3 27 3H5C3.89545 3 3 3.89551 3 5ZM1 21V24H3H6H26H29H31V21H1ZM27.2808 25H28V27H27.7808L27.2808 25ZM4 25V27H4.21924L4.71924 25H4Z" />
  </symbol>

  <symbol id="sofa" viewBox="0 0 32 32">
    <path fill-rule="evenodd" clip-rule="evenodd" d="M31.0798 15.3505C31.0121 15.394 30.9417 15.4335 30.8687 15.4688C30.8033 15.5004 30.7359 15.5285 30.6667 15.553V19C30.6667 19.0002 30.6667 18.9998 30.6667 19C30.6667 19.0679 30.6641 19.1357 30.6592 19.2024C30.618 19.7525 30.4101 20.2561 30.0856 20.6627C29.9417 20.843 29.7749 21.0043 29.5896 21.142C29.5864 21.1444 29.5832 21.1468 29.58 21.1492C29.5513 21.1702 29.5223 21.1907 29.4928 21.2107C29.3392 21.3147 29.1741 21.4031 29 21.4736V24H28L27 22H5L4 24H3V21.4736C2.79239 21.3896 2.59778 21.2802 2.42001 21.1493C1.76092 20.6637 1.33331 19.8821 1.33331 19.0007V15.553C1.22855 15.5159 1.1278 15.4704 1.03188 15.4173C0.416534 15.0762 0 14.4202 0 13.6667C0 12.9764 0.349793 12.3677 0.881798 12.0083C1.201 11.7927 1.5858 11.6667 2 11.6667C2.31065 11.6667 2.60476 11.7376 2.86707 11.864C2.90919 11.8843 2.95049 11.906 2.99091 11.9291C2.99394 11.9308 2.99697 11.9326 3 11.9343V9.99023C3.00458 8.54492 4.03137 7.34009 5.39539 7.06104C5.57825 7.02355 5.76717 7.00275 5.96047 7.00026C5.97365 7.00008 5.98682 7 6 7H26C27.6569 7 29 8.34324 29 10V11.9343L29.0467 11.9082C29.3264 11.7561 29.6465 11.669 29.9867 11.6668C29.9911 11.6668 29.9956 11.6667 30 11.6667C31.1045 11.6667 32 12.5622 32 13.6667C32 13.7124 31.9985 13.7578 31.9954 13.8027C31.9653 14.2501 31.7877 14.6581 31.5109 14.9773C31.3863 15.1207 31.2416 15.2463 31.0813 15.3496C31.0808 15.3499 31.0803 15.3502 31.0798 15.3505ZM29.517 12.791C29.514 12.7926 29.511 12.7943 29.508 12.796C29.2047 12.9677 29 13.2934 29 13.6667V20.3342C29.0194 20.3197 29.0385 20.3047 29.0572 20.2893C29.08 20.2706 29.1023 20.2512 29.1241 20.2313C29.1351 20.2213 29.1459 20.2112 29.1566 20.2009C29.189 20.1697 29.22 20.1372 29.2498 20.1036C29.2792 20.0702 29.3074 20.0357 29.3341 20C29.397 19.9163 29.4521 19.8262 29.4985 19.7312C29.511 19.7056 29.5228 19.6797 29.534 19.6536C29.5446 19.6287 29.5546 19.6035 29.564 19.5781C29.6019 19.4756 29.6299 19.3682 29.647 19.2573C29.6599 19.1738 29.6666 19.0876 29.6667 19.0007C29.6667 19.001 29.6667 19.0005 29.6667 19.0007V14.8459L30.3333 14.6101C30.4064 14.5842 30.4756 14.5503 30.5396 14.509C30.6037 14.4679 30.6627 14.4197 30.7156 14.3655C30.8919 14.1848 31 13.9379 31 13.6667C31 13.1145 30.5522 12.6667 30 12.6667L29.9573 12.6677C29.7981 12.6744 29.6485 12.7183 29.517 12.791ZM28 10C28 8.89552 27.1045 8 26 8H6C5.97503 8 5.95021 8.00045 5.92553 8.00135C5.87982 8.00302 5.8345 8.00623 5.78961 8.01099C5.62335 8.02832 5.4632 8.06616 5.31158 8.12158C4.69569 8.34752 4.22175 8.86767 4.06009 9.51157C4.053 9.53979 4.04652 9.56825 4.04065 9.59692C4.03766 9.61151 4.03483 9.62615 4.03216 9.64085C4.02748 9.66667 4.02329 9.69266 4.01961 9.71881C4.00667 9.81071 4 9.90466 4 10V15H28V10ZM3 13.6667C3 13.1145 2.55225 12.6667 2 12.6667C1.79729 12.6667 1.60866 12.7271 1.45109 12.8308C1.31353 12.9213 1.19963 13.0448 1.1207 13.1901C1.04373 13.3318 1 13.4942 1 13.6667C1 14.1006 1.27679 14.4724 1.66669 14.6101L2.33331 14.8459V19.0007C2.33331 19.0573 2.33613 19.1132 2.34164 19.1684C2.36 19.3521 2.40821 19.5272 2.48143 19.6887C2.5978 19.9452 2.77726 20.167 3 20.3342V13.6667ZM4 21V20H28V21H4ZM4 19V16H28V19H4Z" />
  </symbol>

  <symbol id="table" viewBox="0 0 32 32">
    <path fill-rule="evenodd" clip-rule="evenodd" d="M0 8C0 7.44775 0.447693 7 1 7H31C31.5523 7 32 7.44775 32 8V9C32 9.55225 31.5523 10 31 10H28V12.3333V13V25H26.6667L26.0351 13H5.9649L5.33331 25H4V13V12.3333V10H1C0.447693 10 0 9.55225 0 9V8ZM4 9H28H31V8H1V9H4ZM5 12H27V10H5V12Z" />
  </symbol>

  <symbol id="teapot" viewBox="0 0 32 32">
    <path fill-rule="evenodd" clip-rule="evenodd" d="M3.01154 1.03226L6.35714 5.82611V28.9032H23.5V21.6774V18.85V2.82737V1.03226H3.01154ZM23.5 0H1L5.28571 6.14088V28.9032V29.9355V30.9677C5.28571 31.5378 5.76539 32 6.35714 32H23.5C24.0918 32 24.5714 31.5378 24.5714 30.9677V29.9355V28.9032V21.6774H27.5C29.433 21.6774 31 20.2006 31 18.3788V3.29864C31 1.47681 29.433 0 27.5 0H24.5714H23.5ZM24.5714 2.82737V18.85H27.5C27.6381 18.85 27.7631 18.7974 27.8536 18.7119C27.8557 18.7099 27.8565 18.7092 27.8586 18.7072C27.9454 18.6225 28 18.5058 28 18.3788V3.29864C28 3.18498 27.9572 3.08039 27.8858 2.99899C27.8769 2.98891 27.8684 2.97959 27.8586 2.97026C27.7679 2.88256 27.6402 2.82737 27.5 2.82737H24.5714ZM29.9286 18.3788C29.9286 19.6091 28.8636 20.6452 27.5 20.6452H24.5714V19.8823H27.5C28.3456 19.8823 29.0714 19.2303 29.0714 18.3788V3.29864C29.0714 2.44708 28.3456 1.79511 27.5 1.79511H24.5714V1.03226H27.5C28.8636 1.03226 29.9286 2.0683 29.9286 3.29864V18.3788ZM23.5 29.9355H6.35714V30.9677H23.5V29.9355ZM18.1429 4.12903C18.7346 4.12903 19.2143 4.59123 19.2143 5.16129V23.7419C19.2143 24.312 18.7346 24.7742 18.1429 24.7742C17.5511 24.7742 17.0714 24.312 17.0714 23.7419V5.16129C17.0714 4.59123 17.5511 4.12903 18.1429 4.12903ZM16 5.16129C16 4.02117 16.9594 3.09677 18.1429 3.09677C19.3263 3.09677 20.2857 4.02117 20.2857 5.16129V23.7419C20.2857 24.8821 19.3263 25.8064 18.1429 25.8064C16.9594 25.8064 16 24.8821 16 23.7419V5.16129Z" />
  </symbol>

  <symbol id="toilet" viewBox="0 0 32 32">
    <path fill-rule="evenodd" clip-rule="evenodd" d="M23 2H8V1H23V2ZM25 19V14H24V0H7V14H6V19H7.04321C7.0459 19.0309 7.04872 19.0618 7.05165 19.0926C7.20883 20.7426 7.71737 22.255 8.4794 23.5054C9.56569 25.288 11.1671 26.5381 13 26.8955V32H18V26.8955C19.8329 26.5381 21.4343 25.288 22.5206 23.5055C23.2826 22.2551 23.7912 20.7427 23.9483 19.0926C23.9513 19.0618 23.9541 19.0309 23.9568 19H25ZM8.04608 19C8.07796 19.3423 8.12601 19.6759 8.18898 20C8.48297 21.5131 9.1023 22.8182 9.92136 23.8211C11.042 25.1934 12.5366 26 14.0833 26H16.9167C18.4634 26 19.958 25.1934 21.0786 23.8211C21.8977 22.8182 22.517 21.5131 22.811 20C22.874 19.6759 22.922 19.3423 22.9539 19H8.04608ZM22 5H23V14H8V3H23V4H22V5ZM24 15V18H7V15H24ZM14 27V31H17V27H14Z" />
  </symbol>

  <symbol id="tv" viewBox="0 0 32 32">
    <path fill-rule="evenodd" clip-rule="evenodd" d="M31 22V5H1V22H13H19H31ZM0 23H13V25H10V28H22V25H19V23H32V4H0V23ZM18 25V23H14V25H18ZM13 26H11V27H21V26H19H13ZM29 20V7H3V20H29ZM30 6H2V21H30V6Z" />
  </symbol>

  <symbol id="wardrobe" viewBox="0 0 32 32">
    <path fill-rule="evenodd" clip-rule="evenodd" d="M23 1.03226H25V6.19355V7.22581V12.3871V13.4194V18.5806H13H12H4V1.03226H8V2.15272C7.41742 2.36517 7 2.93876 7 3.6129V11.3548H10V3.6129C10 2.93876 9.58258 2.36517 9 2.15272V1.03226H12V2.15272C11.4174 2.36517 11 2.93876 11 3.6129V13.4194H14V3.6129C14 2.93876 13.5826 2.36517 13 2.15272V1.03226H18V2.15272C17.4174 2.36517 17 2.93876 17 3.6129V11.3548H20V3.6129C20 2.93876 19.5826 2.36517 19 2.15272V1.03226H22V2.15272C21.4174 2.36517 21 2.93876 21 3.6129V11.3548H24V3.6129C24 2.93876 23.5826 2.36517 23 2.15272V1.03226ZM23 0H25H26H32V6.19355V7.22581V12.3871V13.4194V18.5806V19.6129V24.7742V25.8064V32H13H12H4H3H0V0H8H9H12H13H18H19H22H23ZM22.5 3.09677C22.2239 3.09677 22 3.32787 22 3.6129V10.3226H23V3.6129C23 3.32787 22.7761 3.09677 22.5 3.09677ZM18.5 3.09677C18.2239 3.09677 18 3.32787 18 3.6129V10.3226H19V3.6129C19 3.32787 18.7761 3.09677 18.5 3.09677ZM12.5 3.09677C12.2239 3.09677 12 3.32787 12 3.6129V12.3871H13V3.6129C13 3.32787 12.7761 3.09677 12.5 3.09677ZM8.5 3.09677C8.22388 3.09677 8 3.32787 8 3.6129V10.3226H9V3.6129C9 3.32787 8.77612 3.09677 8.5 3.09677ZM4 19.6129V22.7097H12V19.6129H4ZM4 23.7419V26.8387H12V25.8064V24.7742V23.7419H4ZM3 23.7419V26.8387V27.871V30.9677H1V1.03226H3V18.5806V22.7097V23.7419ZM13 30.9677V27.871V26.8387V25.8064H31V30.9677H13ZM31 19.6129V24.7742H13V23.7419V22.7097V19.6129H25H31ZM31 18.5806V13.4194H26V18.5806H31ZM31 12.3871H26V7.22581H31V12.3871ZM31 6.19355V1.03226H26V6.19355H31ZM7 20.6452V21.6774H9V20.6452H7ZM20 22.7097V21.6774H23V22.7097H20ZM20 28.434V29.4662H23V28.434H20ZM7 25.8064V24.7742H9V25.8064H7ZM4 27.871V30.9677H12V27.871H4ZM7 29.9884V28.9561H9V29.9884H7Z" />
  </symbol>

  <symbol id="washer" viewBox="0 0 32 32">
    <path fill-rule="evenodd" clip-rule="evenodd" d="M27 1H5V5H27V1ZM4 0V5V6V27V28V32H28V28V27V6V5V0H4ZM5 27V6H27V27H5ZM5 28V31H27V28H5ZM22 16.5C22 20.0898 19.0898 23 15.5 23C11.9102 23 9 20.0898 9 16.5C9 12.9102 11.9102 10 15.5 10C19.0898 10 22 12.9102 22 16.5ZM23 16.5C23 20.6421 19.6422 24 15.5 24C11.3578 24 8 20.6421 8 16.5C8 12.3579 11.3578 9 15.5 9C19.6422 9 23 12.3579 23 16.5ZM15.5 21C17.9853 21 20 18.9854 20 16.5C20 14.0146 17.9853 12 15.5 12C13.0147 12 11 14.0146 11 16.5C11 18.9854 13.0147 21 15.5 21ZM15.5 22C18.5375 22 21 19.5376 21 16.5C21 13.4624 18.5375 11 15.5 11C12.4625 11 10 13.4624 10 16.5C10 19.5376 12.4625 22 15.5 22ZM17 3C17 3.55225 16.5523 4 16 4C15.4477 4 15 3.55225 15 3C15 2.44775 15.4477 2 16 2C16.5523 2 17 2.44775 17 3ZM20 2.5H19V3.51514H20V2.5ZM21 2.5H22V3.51514H21V2.5ZM11 2.5H10V3.51514H11V2.5ZM12 2.5H13V3.51514H12V2.5Z" />
  </symbol>

  <!-- Other -->
  <symbol id="rootfront" viewBox="0 0 126 10">
    <path d="M65.5626 2.65027V4.28962H69.7674V6.72131H65.5626V9.78142H62.1642V0.218579H70.3578V2.65027H65.5626Z" fill="#5DC2A4"/>
    <path d="M78.6314 7.37705H77.7098V9.78142H74.3114V0.218579H79.1642C80.0954 0.218579 80.9066 0.364298 81.5978 0.655737C82.289 0.947176 82.8218 1.36612 83.1962 1.91257C83.5706 2.45902 83.7578 3.09654 83.7578 3.82514C83.7578 4.5082 83.5946 5.10474 83.2682 5.61475C82.9418 6.12477 82.4714 6.53005 81.857 6.8306L83.9738 9.78142H80.345L78.6314 7.37705ZM80.3306 3.82514C80.3306 3.46995 80.2154 3.19672 79.985 3.00546C79.7546 2.8051 79.409 2.70492 78.9482 2.70492H77.7098V4.94536H78.9482C79.409 4.94536 79.7546 4.84973 79.985 4.65847C80.2154 4.45811 80.3306 4.18033 80.3306 3.82514Z" fill="#5DC2A4"/>
    <path d="M93.2059 10C92.1211 10 91.1467 9.78597 90.2827 9.35792C89.4187 8.92987 88.7419 8.33789 88.2523 7.58197C87.7627 6.81694 87.5179 5.95628 87.5179 5C87.5179 4.04372 87.7627 3.18761 88.2523 2.43169C88.7419 1.66667 89.4187 1.07013 90.2827 0.642076C91.1467 0.214025 92.1211 0 93.2059 0C94.2907 0 95.2651 0.214025 96.1291 0.642076C96.9931 1.07013 97.6699 1.66667 98.1595 2.43169C98.6491 3.18761 98.8939 4.04372 98.8939 5C98.8939 5.95628 98.6491 6.81694 98.1595 7.58197C97.6699 8.33789 96.9931 8.92987 96.1291 9.35792C95.2651 9.78597 94.2907 10 93.2059 10ZM93.2059 7.39071C93.6283 7.39071 94.0075 7.29508 94.3435 7.10383C94.6891 6.90346 94.9627 6.62568 95.1643 6.27049C95.3659 5.90619 95.4667 5.4827 95.4667 5C95.4667 4.5173 95.3659 4.09836 95.1643 3.74317C94.9627 3.37887 94.6891 3.10109 94.3435 2.90984C94.0075 2.70947 93.6283 2.60929 93.2059 2.60929C92.7835 2.60929 92.3995 2.70947 92.0539 2.90984C91.7179 3.10109 91.4491 3.37887 91.2475 3.74317C91.0459 4.09836 90.9451 4.5173 90.9451 5C90.9451 5.4827 91.0459 5.90619 91.2475 6.27049C91.4491 6.62568 91.7179 6.90346 92.0539 7.10383C92.3995 7.29508 92.7835 7.39071 93.2059 7.39071Z" fill="#5DC2A4"/>
    <path d="M112.943 0.218579V9.78142H110.15L106.319 5.43716V9.78142H103.007V0.218579H105.801L109.631 4.56284V0.218579H112.943Z" fill="#5DC2A4"/>
    <path d="M119.65 2.71858H116.698V0.218579H126V2.71858H123.048V9.78142H119.65V2.71858Z" fill="#5DC2A4"/>
    <path d="M10.5409 7.37705H9.61935V9.78142H6.22095V0.218579H11.0737C12.005 0.218579 12.8162 0.364298 13.5074 0.655737C14.1986 0.947176 14.7314 1.36612 15.1058 1.91257C15.4802 2.45902 15.6674 3.09654 15.6674 3.82514C15.6674 4.5082 15.5042 5.10474 15.1778 5.61475C14.8514 6.12477 14.381 6.53005 13.7666 6.8306L15.8834 9.78142H12.2545L10.5409 7.37705ZM12.2401 3.82514C12.2401 3.46995 12.1249 3.19672 11.8946 3.00546C11.6641 2.8051 11.3185 2.70492 10.8577 2.70492H9.61935V4.94536H10.8577C11.3185 4.94536 11.6641 4.84973 11.8946 4.65847C12.1249 4.45811 12.2401 4.18033 12.2401 3.82514Z" fill="#616161"/>
    <path d="M25.1154 10C24.0306 10 23.0562 9.78597 22.1922 9.35792C21.3282 8.92987 20.6514 8.33789 20.1618 7.58197C19.6722 6.81694 19.4274 5.95628 19.4274 5C19.4274 4.04372 19.6722 3.18761 20.1618 2.43169C20.6514 1.66667 21.3282 1.07013 22.1922 0.642076C23.0562 0.214025 24.0306 0 25.1154 0C26.2002 0 27.1746 0.214025 28.0386 0.642076C28.9026 1.07013 29.5794 1.66667 30.069 2.43169C30.5586 3.18761 30.8034 4.04372 30.8034 5C30.8034 5.95628 30.5586 6.81694 30.069 7.58197C29.5794 8.33789 28.9026 8.92987 28.0386 9.35792C27.1746 9.78597 26.2002 10 25.1154 10ZM25.1154 7.39071C25.5378 7.39071 25.917 7.29508 26.253 7.10383C26.5986 6.90346 26.8722 6.62568 27.0738 6.27049C27.2754 5.90619 27.3762 5.4827 27.3762 5C27.3762 4.5173 27.2754 4.09836 27.0738 3.74317C26.8722 3.37887 26.5986 3.10109 26.253 2.90984C25.917 2.70947 25.5378 2.60929 25.1154 2.60929C24.693 2.60929 24.309 2.70947 23.9634 2.90984C23.6274 3.10109 23.3586 3.37887 23.157 3.74317C22.9554 4.09836 22.8546 4.5173 22.8546 5C22.8546 5.4827 22.9554 5.90619 23.157 6.27049C23.3586 6.62568 23.6274 6.90346 23.9634 7.10383C24.309 7.29508 24.693 7.39071 25.1154 7.39071Z" fill="#616161"/>
    <path d="M40.2017 10C39.1169 10 38.1425 9.78597 37.2785 9.35792C36.4145 8.92987 35.7377 8.33789 35.2481 7.58197C34.7585 6.81694 34.5137 5.95628 34.5137 5C34.5137 4.04372 34.7585 3.18761 35.2481 2.43169C35.7377 1.66667 36.4145 1.07013 37.2785 0.642076C38.1425 0.214025 39.1169 0 40.2017 0C41.2865 0 42.2609 0.214025 43.1249 0.642076C43.9889 1.07013 44.6657 1.66667 45.1553 2.43169C45.6449 3.18761 45.8897 4.04372 45.8897 5C45.8897 5.95628 45.6449 6.81694 45.1553 7.58197C44.6657 8.33789 43.9889 8.92987 43.1249 9.35792C42.2609 9.78597 41.2865 10 40.2017 10ZM40.2017 7.39071C40.6241 7.39071 41.0033 7.29508 41.3393 7.10383C41.6849 6.90346 41.9585 6.62568 42.1601 6.27049C42.3617 5.90619 42.4625 5.4827 42.4625 5C42.4625 4.5173 42.3617 4.09836 42.1601 3.74317C41.9585 3.37887 41.6849 3.10109 41.3393 2.90984C41.0033 2.70947 40.6241 2.60929 40.2017 2.60929C39.7793 2.60929 39.3953 2.70947 39.0497 2.90984C38.7137 3.10109 38.4449 3.37887 38.2433 3.74317C38.0417 4.09836 37.9409 4.5173 37.9409 5C37.9409 5.4827 38.0417 5.90619 38.2433 6.27049C38.4449 6.62568 38.7137 6.90346 39.0497 7.10383C39.3953 7.29508 39.7793 7.39071 40.2017 7.39071Z" fill="#616161"/>
    <path d="M52.0513 2.71858H49.0993V0.218579H58.4017V2.71858H55.4497V9.78142H52.0513V2.71858Z" fill="#616161"/>
    <path d="M2.7 2.95066C2.7 3.65799 2.09559 4.2314 1.35 4.2314C0.604416 4.2314 0 3.65799 0 2.95066C0 2.24333 0.604416 1.66992 1.35 1.66992C2.09559 1.66992 2.7 2.24333 2.7 2.95066Z" fill="#616161"/>
    <path d="M2.7 7.21978C2.7 7.92712 2.09559 8.50052 1.35 8.50052C0.604416 8.50052 0 7.92712 0 7.21978C0 6.51245 0.604416 5.93905 1.35 5.93905C2.09559 5.93905 2.7 6.51245 2.7 7.21978Z" fill="#616161"/>
  </symbol>

</svg>