<svg width="24" height="33" viewBox="0 0 24 33" fill="none" xmlns="http://www.w3.org/2000/svg">
<path fill-rule="evenodd" clip-rule="evenodd" d="M18.2852 15.3613C18.2852 15.3145 18.2852 15.2656 18.2852 15.2188C18.2695 14.5039 18.1328 13.8242 17.8945 13.1875C17.8008 12.9277 17.6875 12.6758 17.5586 12.4336C20.4023 14.2578 22.2852 17.4375 22.2852 21.0508C22.2852 24.5645 20.5078 27.6641 17.8008 29.5098C18.9922 28.1504 19.7148 26.3672 19.7148 24.4199C19.7148 22.1953 18.7773 20.1895 17.2734 18.7793C17.875 17.8594 18.2383 16.7656 18.2812 15.5957C18.2812 15.5176 18.2852 15.4395 18.2852 15.3613ZM14.4492 9.59766C14.1562 9.23438 13.8633 8.84375 13.5781 8.42773C13.375 8.13086 13.1719 7.82031 12.9766 7.49805C12.6523 6.96484 12.3398 6.39258 12.0547 5.78516L11.7305 6.33398L11.3555 6.92969C10.7734 7.83789 10.1445 8.69336 9.53516 9.45312L9.34375 9.69141C10.1094 9.33594 10.9531 9.12695 11.8438 9.10547C11.8945 9.10547 11.9492 9.10352 12 9.10352C12.8516 9.10352 13.6641 9.27148 14.4062 9.57812C14.418 9.58398 14.4375 9.5918 14.4492 9.59766ZM6.44141 12.4336C5.97266 13.3086 5.71484 14.3027 5.71484 15.3613C5.71484 15.4102 5.71484 15.459 5.71484 15.5078C5.74219 16.7109 6.10938 17.8379 6.72656 18.7793C5.22266 20.1895 4.28516 22.1953 4.28516 24.4199C4.28516 25.1699 4.39062 25.8945 4.58984 26.5801C4.91016 27.6758 5.46484 28.6738 6.19922 29.5098C3.49219 27.6641 1.71484 24.5645 1.71484 21.0508C1.71484 19.6758 1.98828 18.3652 2.48047 17.166C3.28516 15.2148 4.67969 13.5645 6.44141 12.4336ZM11.0664 22.4492C10.0898 21.5879 8.75391 20.6406 7.86719 20.0508C7.36328 20.5312 6.94141 21.0996 6.62891 21.7305C6.22656 22.541 6 23.4531 6 24.4199C6 27.75 8.69141 30.4395 12 30.4395C15.3086 30.4395 18 27.75 18 24.4199C18 22.6992 17.2812 21.1484 16.1289 20.0508C15.8516 20.2461 15.5234 20.4863 15.1758 20.7539C14.5625 21.2266 13.8945 21.7891 13.3516 22.3418C12.793 22.9102 12.375 23.4629 12.2852 23.8965C12.1992 23.5469 11.7109 23.0195 11.0664 22.4492ZM11.832 2.17578C11.6641 2.67578 11.457 3.17773 11.2227 3.67773C9.88672 6.50781 7.60938 9.21875 6.28516 10.543C2.54297 12.5645 0 16.5137 0 21.0508C0 27.6504 5.37109 33 12 33C18.6289 33 24 27.6504 24 21.0508C24 16.5137 21.457 12.5645 17.7148 10.543C16.9531 9.9082 15.8398 8.74414 14.8203 7.20898C14.1562 6.20508 13.5273 5.04297 13.0625 3.76367C12.6367 2.59375 12.3477 1.32812 12.2852 0C12.2422 0.703125 12.082 1.43555 11.832 2.17578ZM12 10.8105C9.47656 10.8105 7.42969 12.8477 7.42969 15.3613C7.42969 15.377 7.42969 15.3945 7.42969 15.4102C7.44141 16.5918 7.92578 17.6816 8.67578 18.4844C8.71484 18.5234 8.75 18.5625 8.78906 18.6016C9.17578 18.8574 9.64453 19.1816 10.1367 19.5391C10.5977 19.875 11.0781 20.2383 11.5312 20.6055L11.8477 20.8652L12.1484 21.123C12.3477 20.9238 12.5508 20.7305 12.7539 20.5469C13.5898 19.7852 14.5352 19.0723 15.1992 18.6133C16.0508 17.7852 16.5703 16.6348 16.5703 15.3613C16.5703 12.8477 14.5234 10.8105 12 10.8105Z" fill="url(#paint0_linear)"/>
<defs>
<linearGradient id="paint0_linear" x1="12" y1="9.10345" x2="12" y2="21.6207" gradientUnits="userSpaceOnUse">
<stop stop-color="#40D6A2"/>
<stop offset="1" stop-color="#28C9C8"/>
</linearGradient>
</defs>
</svg>
