<svg width="24" height="24" viewBox="0 0 24 24" fill="none" xmlns="http://www.w3.org/2000/svg">
<path d="M6.90125 14.159L14.6434 6.41684C15.4452 5.61511 16.7768 5.64687 17.6177 6.48779C18.4586 7.3287 18.4904 8.66033 17.6887 9.46206L8.4948 18.6559C7.15858 19.9921 4.9392 19.9392 3.53768 18.5377C2.13616 17.1362 2.08322 14.9168 3.41944 13.5806L12.6133 4.3867C14.484 2.51599 17.5911 2.5901 19.5533 4.55224C21.5154 6.51437 21.5895 9.6215 19.7188 11.4922L11.9766 19.2344" stroke="#08C1C1" stroke-linecap="round"/>
</svg>
