<svg width="40" height="40" viewBox="0 0 40 40" fill="none" xmlns="http://www.w3.org/2000/svg">
<circle cx="20" cy="20" r="19" stroke="#08C1C1" stroke-width="2"/>
<rect x="27" y="21" width="14" height="2" transform="rotate(-180 27 21)" fill="#08C1C1"/>
<rect x="21" y="13" width="14" height="2" transform="rotate(90 21 13)" fill="#08C1C1"/>
</svg>
