<svg width="24" height="32" viewBox="0 0 24 32" fill="none" xmlns="http://www.w3.org/2000/svg">
<rect x="0.5" y="5.5" width="23" height="22" stroke="#BCBCBC"/>
<rect x="0.5" y="27.5" width="23" height="4" stroke="#BCBCBC"/>
<rect x="0.5" y="0.5" width="23" height="5" stroke="#BCBCBC"/>
<circle cx="11.5" cy="16.5" r="7" stroke="#BCBCBC"/>
<circle cx="11.5" cy="16.5" r="5" stroke="#BCBCBC"/>
<circle cx="12" cy="3" r="0.5" stroke="#BCBCBC"/>
<rect x="15.25" y="2.75" width="0.5" height="0.515102" stroke="#BCBCBC" stroke-width="0.5"/>
<rect x="17.25" y="2.75" width="0.5" height="0.515102" stroke="#BCBCBC" stroke-width="0.5"/>
<rect x="6.25" y="2.75" width="0.5" height="0.515102" stroke="#BCBCBC" stroke-width="0.5"/>
<rect x="8.25" y="2.75" width="0.5" height="0.515102" stroke="#BCBCBC" stroke-width="0.5"/>
</svg>
