<svg width="16" height="16" viewBox="0 0 16 16" fill="none" xmlns="http://www.w3.org/2000/svg">
<mask id="path-1-inside-1" fill="white">
<path fill-rule="evenodd" clip-rule="evenodd" d="M8.60742 1C6.83984 1 5.42383 2.40039 5.42383 4.10352C5.42383 4.9043 5.73438 5.63281 6.24609 6.18555C6.43359 6.38867 6.42188 6.70508 6.21875 6.89258C6.10352 7 5.95117 7.04297 5.80664 7.02148C5.69727 7.00586 5.5918 6.95312 5.51172 6.86523C4.83789 6.13867 4.42383 5.16797 4.42383 4.10352L4.42969 3.89453L4.18359 3.88477C3.40234 3.88477 2.69141 4.1582 2.13867 4.60938C1.44141 5.18164 1 6.03711 1 6.98828C1 8.69336 2.41602 10.0938 4.18359 10.0938C4.46094 10.0938 4.68359 10.3184 4.68359 10.5938C4.68359 10.8691 4.46094 11.0938 4.18359 11.0938C1.88281 11.0938 0 9.26562 0 6.98828C0 4.71289 1.88281 2.88477 4.18359 2.88477C4.31836 2.88477 4.45117 2.89062 4.58203 2.90234C5.10547 1.2168 6.72852 0 8.60742 0C10.9082 0 12.791 1.82812 12.791 4.10352C12.791 4.25195 12.7832 4.39844 12.7676 4.54297C14.0684 5.02344 15.002 6.25391 15.002 7.71094C15.002 9.58984 13.4473 11.0938 11.5547 11.0938C11.2793 11.0938 11.0547 10.8711 11.0547 10.5938C11.0547 10.3184 11.2793 10.0938 11.5547 10.0938C12.916 10.0938 14.002 9.01758 14.002 7.71094C14.002 6.58398 13.1973 5.62891 12.1016 5.38672C11.832 5.32617 11.6621 5.06055 11.7207 4.79102C11.7207 4.76562 11.7227 4.75 11.7285 4.72461C11.7695 4.52344 11.791 4.31641 11.791 4.10352C11.791 3.43945 11.5762 2.82227 11.209 2.31641C10.6348 1.52148 9.6875 1 8.60742 1Z"/>
</mask>
<path fill-rule="evenodd" clip-rule="evenodd" d="M8.60742 1C6.83984 1 5.42383 2.40039 5.42383 4.10352C5.42383 4.9043 5.73438 5.63281 6.24609 6.18555C6.43359 6.38867 6.42188 6.70508 6.21875 6.89258C6.10352 7 5.95117 7.04297 5.80664 7.02148C5.69727 7.00586 5.5918 6.95312 5.51172 6.86523C4.83789 6.13867 4.42383 5.16797 4.42383 4.10352L4.42969 3.89453L4.18359 3.88477C3.40234 3.88477 2.69141 4.1582 2.13867 4.60938C1.44141 5.18164 1 6.03711 1 6.98828C1 8.69336 2.41602 10.0938 4.18359 10.0938C4.46094 10.0938 4.68359 10.3184 4.68359 10.5938C4.68359 10.8691 4.46094 11.0938 4.18359 11.0938C1.88281 11.0938 0 9.26562 0 6.98828C0 4.71289 1.88281 2.88477 4.18359 2.88477C4.31836 2.88477 4.45117 2.89062 4.58203 2.90234C5.10547 1.2168 6.72852 0 8.60742 0C10.9082 0 12.791 1.82812 12.791 4.10352C12.791 4.25195 12.7832 4.39844 12.7676 4.54297C14.0684 5.02344 15.002 6.25391 15.002 7.71094C15.002 9.58984 13.4473 11.0938 11.5547 11.0938C11.2793 11.0938 11.0547 10.8711 11.0547 10.5938C11.0547 10.3184 11.2793 10.0938 11.5547 10.0938C12.916 10.0938 14.002 9.01758 14.002 7.71094C14.002 6.58398 13.1973 5.62891 12.1016 5.38672C11.832 5.32617 11.6621 5.06055 11.7207 4.79102C11.7207 4.76562 11.7227 4.75 11.7285 4.72461C11.7695 4.52344 11.791 4.31641 11.791 4.10352C11.791 3.43945 11.5762 2.82227 11.209 2.31641C10.6348 1.52148 9.6875 1 8.60742 1Z" fill="#BCBCBC"/>
<path d="M6.24609 6.18555L6.9809 5.50727L6.9799 5.50619L6.24609 6.18555ZM6.21875 6.89258L5.54046 6.15777L5.53687 6.16111L6.21875 6.89258ZM5.80664 7.02148L5.95368 6.03234L5.94806 6.03153L5.80664 7.02148ZM5.51172 6.86523L6.25094 6.19172L6.24493 6.18524L5.51172 6.86523ZM4.42383 4.10352L3.42422 4.07549L3.42383 4.0895V4.10352H4.42383ZM4.42969 3.89453L5.42929 3.92256L5.457 2.93451L4.46934 2.89532L4.42969 3.89453ZM4.18359 3.88477L4.22325 2.88555L4.20343 2.88477H4.18359V3.88477ZM2.13867 4.60938L1.50633 3.83468L1.50426 3.83638L2.13867 4.60938ZM4.58203 2.90234L4.49284 3.89836L5.29746 3.97041L5.53704 3.19892L4.58203 2.90234ZM12.7676 4.54297L11.7734 4.43549L11.6896 5.21082L12.4211 5.48102L12.7676 4.54297ZM12.1016 5.38672L11.8824 6.36241L11.8857 6.36315L12.1016 5.38672ZM11.7207 4.79102L12.6979 5.00345L12.7207 4.89846V4.79102H11.7207ZM11.7285 4.72461L12.7029 4.94947L12.7058 4.93696L12.7084 4.92438L11.7285 4.72461ZM11.209 2.31641L10.3984 2.90197L10.3997 2.90383L11.209 2.31641ZM6.42383 4.10352C6.42383 2.97239 7.3722 2 8.60742 2V0C6.30749 0 4.42383 1.82839 4.42383 4.10352H6.42383ZM6.9799 5.50619C6.62976 5.12798 6.42383 4.63869 6.42383 4.10352H4.42383C4.42383 5.16991 4.83899 6.13764 5.51229 6.8649L6.9799 5.50619ZM6.89703 7.62738C7.50851 7.06294 7.54066 6.11368 6.9809 5.50727L5.51129 6.86383C5.32653 6.66367 5.33524 6.34722 5.54047 6.15777L6.89703 7.62738ZM5.65961 8.01062C6.09672 8.07559 6.55647 7.94487 6.90063 7.62405L5.53687 6.16111C5.65056 6.05513 5.80563 6.01035 5.95367 6.03235L5.65961 8.01062ZM4.77252 7.53872C5.01457 7.80439 5.33412 7.96413 5.66522 8.01143L5.94806 6.03153C6.06041 6.04758 6.16902 6.10186 6.25092 6.19174L4.77252 7.53872ZM3.42383 4.10352C3.42383 5.43249 3.94175 6.64299 4.7785 7.54523L6.24493 6.18524C5.73403 5.63435 5.42383 4.90345 5.42383 4.10352H3.42383ZM3.43008 3.8665L3.42422 4.07549L5.42344 4.13154L5.42929 3.92256L3.43008 3.8665ZM4.14394 4.88398L4.39004 4.89374L4.46934 2.89532L4.22325 2.88555L4.14394 4.88398ZM2.77101 5.38406C3.15094 5.07395 3.64006 4.88477 4.18359 4.88477V2.88477C3.16463 2.88477 2.23187 3.24246 1.50633 3.83469L2.77101 5.38406ZM2 6.98828C2 6.35492 2.29263 5.77669 2.77309 5.38237L1.50426 3.83638C0.590178 4.58659 0 5.71929 0 6.98828H2ZM4.18359 9.09375C2.94879 9.09375 2 8.12176 2 6.98828H0C0 9.26496 1.88324 11.0938 4.18359 11.0938V9.09375ZM5.68359 10.5938C5.68359 9.76862 5.01577 9.09375 4.18359 9.09375V11.0938C3.90611 11.0938 3.68359 10.8681 3.68359 10.5938H5.68359ZM4.18359 12.0938C5.01577 12.0938 5.68359 11.4189 5.68359 10.5938H3.68359C3.68359 10.3194 3.90611 10.0938 4.18359 10.0938V12.0938ZM-1 6.98828C-1 9.83866 1.35151 12.0938 4.18359 12.0938V10.0938C2.41411 10.0938 1 8.69259 1 6.98828H-1ZM4.18359 1.88477C1.35183 1.88477 -1 4.13955 -1 6.98828H1C1 5.28623 2.4138 3.88477 4.18359 3.88477V1.88477ZM4.67123 1.90633C4.50996 1.89189 4.34737 1.88477 4.18359 1.88477V3.88477C4.28935 3.88477 4.39238 3.88936 4.49284 3.89836L4.67123 1.90633ZM8.60742 -1C6.29837 -1 4.2827 0.49439 3.62702 2.60577L5.53704 3.19892C5.92824 1.9392 7.15866 1 8.60742 1V-1ZM13.791 4.10352C13.791 1.25478 11.4392 -1 8.60742 -1V1C10.3772 1 11.791 2.40147 11.791 4.10352H13.791ZM13.7618 4.65045C13.7813 4.46948 13.791 4.2871 13.791 4.10352H11.791C11.791 4.2168 11.7851 4.3274 11.7734 4.43549L13.7618 4.65045ZM12.4211 5.48102C13.3534 5.82537 14.002 6.69779 14.002 7.71094H16.002C16.002 5.81003 14.7834 4.2215 13.1141 3.60491L12.4211 5.48102ZM14.002 7.71094C14.002 9.01571 12.9171 10.0938 11.5547 10.0938V12.0938C13.9775 12.0938 16.002 10.164 16.002 7.71094H14.002ZM11.5547 10.0938C11.829 10.0938 12.0547 10.3163 12.0547 10.5938H10.0547C10.0547 11.4259 10.7296 12.0938 11.5547 12.0938V10.0938ZM12.0547 10.5938C12.0547 10.8706 11.8316 11.0938 11.5547 11.0938V9.09375C10.727 9.09375 10.0547 9.76607 10.0547 10.5938H12.0547ZM11.5547 11.0938C13.4482 11.0938 15.002 9.58977 15.002 7.71094H13.002C13.002 8.44539 12.3839 9.09375 11.5547 9.09375V11.0938ZM15.002 7.71094C15.002 6.09263 13.8491 4.74885 12.3174 4.41029L11.8857 6.36315C12.5454 6.50897 13.002 7.07534 13.002 7.71094H15.002ZM12.3207 4.41103C12.5855 4.47051 12.7565 4.73402 12.6979 5.00345L10.7435 4.57859C10.5678 5.38708 11.0785 6.18183 11.8824 6.3624L12.3207 4.41103ZM10.7541 4.49975C10.7328 4.59208 10.7207 4.68327 10.7207 4.79102H12.7207C12.7207 4.80532 12.7201 4.83633 12.7154 4.87603C12.7108 4.91438 12.7046 4.94222 12.7029 4.94947L10.7541 4.49975ZM10.791 4.10352C10.791 4.24863 10.7764 4.38874 10.7487 4.52484L12.7084 4.92438C12.7626 4.65813 12.791 4.38418 12.791 4.10352H10.791ZM10.3997 2.90383C10.648 3.2459 10.791 3.65896 10.791 4.10352H12.791C12.791 3.21995 12.5043 2.39863 12.0183 1.72898L10.3997 2.90383ZM8.60742 2C9.35862 2 10.0075 2.36092 10.3984 2.90197L12.0196 1.73084C11.262 0.682049 10.0164 0 8.60742 0V2Z" fill="#BCBCBC" mask="url(#path-1-inside-1)"/>
<path d="M6.4024 8.36579C6.43425 8.1944 6.58681 8.06982 6.76485 8.06982H9.71198C9.84328 8.06982 9.96466 8.1382 10.0306 8.2493C10.0965 8.3604 10.097 8.49744 10.0319 8.609L8.87411 10.5929H9.71198C9.84545 10.5929 9.96847 10.6636 10.0336 10.7776C10.0987 10.8916 10.0957 11.0311 10.0257 11.1423L7.07859 15.8281C6.98431 15.978 6.79316 16.0394 6.62644 15.9732C6.45972 15.9071 6.3662 15.7328 6.40523 15.561L7.04239 12.7556H6.02806C5.91883 12.7556 5.81522 12.7082 5.74523 12.6261C5.67524 12.5441 5.64607 12.4359 5.66561 12.3307L6.4024 8.36579Z" fill="#BCBCBC"/>
</svg>
