<svg width="18" height="25" viewBox="0 0 18 25" fill="none" xmlns="http://www.w3.org/2000/svg">
<path d="M11.9119 2.0372L12.316 2.29973L12.3171 2.29814L11.9119 2.0372ZM11.0525 2.95419L10.7611 2.57167L10.5261 2.75754L10.5548 3.04188L11.0525 2.95419ZM12.0076 1.39755L12.4809 1.19975L12.48 1.19736L12.0076 1.39755ZM11.1482 0.838954L11.1101 1.33873L11.1109 1.33873L11.1482 0.838954ZM5.82597 0.843837L5.78742 1.34361L5.78788 1.34361L5.82597 0.843837ZM5.07011 2.04501L5.48813 1.73914L5.48772 1.73856L5.07011 2.04501ZM5.92949 2.95907L6.42725 2.97013L6.4529 2.71163L6.25752 2.55763L5.92949 2.95907ZM5.06035 11.7188L5.24162 12.1693L5.52769 12.0365L5.55811 11.7299L5.06035 11.7188ZM0.747845 15.4962L0.335786 15.2454L0.335527 15.2458L0.747845 15.4962ZM1.55253 16.8507L1.59203 16.3509L1.59175 16.3509L1.55253 16.8507ZM15.8533 16.878L15.8932 16.3782L15.8928 16.3782L15.8533 16.878ZM16.6346 15.5313L17.0532 15.2263L17.0531 15.2262L16.6346 15.5313ZM11.9314 11.6798L11.4337 11.7675L11.4607 12.0357L11.7034 12.1408L11.9314 11.6798ZM11.5078 1.77467C11.3001 2.07429 11.0488 2.34405 10.7611 2.57167L11.344 3.33671C11.7204 3.03894 12.0472 2.6876 12.316 2.29973L11.5078 1.77467ZM11.5343 1.59534C11.5465 1.62983 11.5485 1.65953 11.5452 1.68437C11.5421 1.70801 11.5328 1.73834 11.5067 1.77625L12.3171 2.29814C12.5656 1.93702 12.6 1.53734 12.4809 1.19975L11.5343 1.59534ZM11.1109 1.33873C11.3297 1.3382 11.4904 1.47303 11.5352 1.59774L12.48 1.19736C12.2983 0.691204 11.7832 0.337753 11.1856 0.339183L11.1109 1.33873ZM5.78788 1.34361L11.1101 1.33873L11.1863 0.339182L5.86406 0.344065L5.78788 1.34361ZM5.48772 1.73856C5.44167 1.67254 5.43283 1.62156 5.433 1.58991C5.43318 1.55722 5.443 1.52425 5.46485 1.49124C5.50902 1.42449 5.61634 1.34361 5.78742 1.34361L5.86452 0.344064C5.36763 0.344064 4.90562 0.589359 4.64315 0.985987C4.37007 1.39865 4.35154 1.91999 4.6525 2.35146L5.48772 1.73856ZM6.25752 2.55763C5.96079 2.32374 5.70181 2.04652 5.48813 1.73914L4.6521 2.35088C4.91498 2.72904 5.23412 3.07097 5.60146 3.36052L6.25752 2.55763ZM5.55811 11.7299L6.42725 2.97013L5.43172 2.94801L4.56258 11.7078L5.55811 11.7299ZM1.1599 15.747C2.1543 14.2313 3.5921 12.9351 5.24162 12.1693L4.87907 11.2684C3.0286 12.1275 1.43514 13.5697 0.335786 15.2454L1.1599 15.747ZM1.59175 16.3509C1.40147 16.3506 1.24403 16.252 1.16195 16.1171C1.0828 15.987 1.08813 15.8566 1.16016 15.7466L0.335527 15.2458C0.0110728 15.7413 0.0554664 16.2876 0.296141 16.6831C0.533888 17.0738 0.97703 17.3497 1.51332 17.3504L1.59175 16.3509ZM15.8928 16.3782L1.59203 16.3509L1.51304 17.3504L15.8138 17.3778L15.8928 16.3782ZM16.2159 15.8363C16.3197 15.9864 16.2972 16.1151 16.247 16.1993C16.1932 16.2895 16.0768 16.3787 15.8932 16.3782L15.8134 17.3778C16.3564 17.3792 16.8377 17.0944 17.0964 16.6605C17.3586 16.2206 17.3635 15.675 17.0532 15.2263L16.2159 15.8363ZM11.7034 12.1408C13.5077 12.9223 15.1339 14.2732 16.216 15.8365L17.0531 15.2262C15.8774 13.5277 14.1208 12.0681 12.1594 11.2187L11.7034 12.1408ZM10.5548 3.04188L11.4337 11.7675L12.4292 11.5921L11.5503 2.8665L10.5548 3.04188Z" fill="#FF8C48"/>
<path d="M8.52733 17.3398L8.53347 23.8383" stroke="#FF8C48" stroke-linecap="round"/>
</svg>
