<svg width="12" height="17" viewBox="0 0 12 17" fill="none" xmlns="http://www.w3.org/2000/svg">
<rect x="2.5" y="5.5" width="7" height="4" rx="0.5" stroke="#616161"/>
<rect x="0.5" y="3.5" width="11" height="12" rx="1.5" stroke="#616161"/>
<circle cx="3" cy="13" r="0.5" stroke="#616161"/>
<circle cx="9" cy="13" r="0.5" stroke="#616161"/>
<path d="M4.5 3.5L3.5 1M7.5 3.5L8.5 1" stroke="#616161"/>
<path d="M0.5 16.5L2 15.5" stroke="#616161" stroke-linecap="round"/>
<path d="M11.5 16.5L10 15.5" stroke="#616161" stroke-linecap="round"/>
<path d="M11 2C11 1.44772 8.76142 1 6 1C3.23858 1 1 1.44772 1 2" stroke="#616161" stroke-linecap="round"/>
</svg>
