<svg width="34" height="39" viewBox="0 0 34 39" fill="none" xmlns="http://www.w3.org/2000/svg">
<path d="M12.1847 7.62152C12.5129 8.20879 12.9432 8.73576 13.4564 9.17883C13.9888 8.74097 14.4367 8.21355 14.7789 7.62152C14.8414 7.42888 14.8528 7.22389 14.8119 7.02578C14.7711 6.82768 14.6795 6.64295 14.5456 6.48894C14.4117 6.33493 14.2399 6.21667 14.0465 6.14528C13.853 6.07389 13.6441 6.05169 13.4394 6.08078C13.2379 6.05324 13.0325 6.07752 12.8436 6.15124C12.6546 6.22496 12.4886 6.34555 12.3619 6.50113C12.2352 6.6567 12.1522 6.84187 12.1211 7.03836C12.0901 7.23484 12.112 7.43584 12.1847 7.62152Z" fill="#A4430A"/>
<path d="M15.2508 6.23274C15.4847 6.23274 15.7089 6.14198 15.8743 5.98042C16.0396 5.81886 16.1325 5.59973 16.1325 5.37125C16.1402 5.3052 16.1402 5.2385 16.1325 5.17245C16.1262 5.21328 16.1108 5.25225 16.0873 5.2866C16.0639 5.32096 16.033 5.34986 15.9969 5.37125C15.9519 5.40081 15.9012 5.42089 15.8479 5.43023C15.7946 5.43957 15.7399 5.43795 15.6872 5.42548C15.6346 5.41301 15.5852 5.38997 15.5421 5.35781C15.4991 5.32566 15.4634 5.2851 15.4373 5.23872C15.4052 5.19553 15.3824 5.14646 15.3701 5.09445C15.3578 5.04244 15.3564 4.98855 15.3659 4.93598C15.3754 4.88342 15.3956 4.83326 15.4254 4.7885C15.4551 4.74373 15.4938 4.70528 15.5391 4.67544C15.6059 4.6593 15.6757 4.6593 15.7425 4.67544C15.5972 4.57735 15.4271 4.52005 15.2508 4.50977C15.017 4.50977 14.7927 4.60053 14.6274 4.76209C14.462 4.92365 14.3691 5.14277 14.3691 5.37125C14.3691 5.59973 14.462 5.81886 14.6274 5.98042C14.7927 6.14198 15.017 6.23274 15.2508 6.23274Z" fill="#A4430A"/>
<path d="M11.4555 6.23274C11.6893 6.23274 11.9136 6.14198 12.0789 5.98042C12.2443 5.81886 12.3372 5.59973 12.3372 5.37125C12.3453 5.30523 12.3453 5.23848 12.3372 5.17245C12.3269 5.21397 12.308 5.25301 12.2818 5.28719C12.2555 5.32137 12.2225 5.34997 12.1846 5.37125C12.1396 5.40081 12.0889 5.4209 12.0356 5.43023C11.9823 5.43957 11.9275 5.43795 11.8749 5.42548C11.8223 5.41301 11.7728 5.38997 11.7298 5.35781C11.6868 5.32566 11.6511 5.2851 11.625 5.23872C11.5663 5.14809 11.5459 5.03873 11.568 4.93367C11.5901 4.82861 11.6531 4.73603 11.7437 4.67544C11.7809 4.65739 11.8211 4.64616 11.8624 4.6423C11.7298 4.5614 11.5778 4.51572 11.4216 4.50977C11.1907 4.5141 10.9707 4.60678 10.809 4.76787C10.6473 4.92897 10.5568 5.14561 10.5568 5.37125C10.5544 5.48644 10.5761 5.60089 10.6207 5.70757C10.6652 5.81425 10.7316 5.9109 10.8158 5.99159C10.8999 6.07228 11.0001 6.13529 11.1101 6.17676C11.2201 6.21823 11.3376 6.23728 11.4555 6.23274Z" fill="#A4430A"/>
<path d="M29.4479 25.8617C33.5681 20.0467 34.9245 15.7061 33.3816 12.956C32.7982 12.0949 32.0044 11.3895 31.0718 10.9035C30.1393 10.4175 29.0975 10.1664 28.0406 10.1727L27.7354 9.4272C27.6506 8.15154 26.8198 0.000530603 20.648 0.000530603C19.3432 -0.00819348 18.0768 0.431633 17.0703 1.24306C16.0557 0.42299 14.7755 -0.0174688 13.4588 0.000530603C7.27002 0.000530603 6.45616 8.15154 6.37138 9.4272L6.06618 10.1727C4.99429 10.1509 3.934 10.3929 2.98289 10.8764C2.03179 11.3598 1.22041 12.0693 0.623442 12.9394C-0.93647 15.7227 0.436931 20.1295 4.67582 26.044L3.26851 25.8783H3.04809C2.70039 25.881 2.36196 25.9881 2.07866 26.1851C1.79535 26.3821 1.58087 26.6594 1.46427 26.9794C1.34768 27.2995 1.33461 27.6469 1.42684 27.9744C1.51907 28.302 1.71214 28.5939 1.97989 28.8107V29.2911C1.98076 29.5143 2.02777 29.735 2.11809 29.94C2.20841 30.1449 2.34019 30.33 2.50551 30.484C2.4567 30.8209 2.52221 31.1643 2.69202 31.4614L3.01418 32.0744C3.14371 32.3158 3.33217 32.5222 3.56286 32.6753C3.79356 32.8285 4.05936 32.9237 4.33671 32.9525H4.79451C4.79451 32.9525 4.79451 33.0684 4.79451 33.1347C4.84595 33.3836 4.95527 33.6177 5.11403 33.8188C5.27278 34.0199 5.47673 34.1826 5.71011 34.2944L6.47311 34.6589C6.70047 34.7665 6.94957 34.8231 7.2022 34.8245C7.41161 34.8518 7.62438 34.8405 7.82956 34.7914C9.07513 36.1318 10.5967 37.1997 12.2945 37.9249C13.9923 38.6501 15.8279 39.0163 17.6807 38.9994C19.5356 38.999 21.3707 38.6269 23.0726 37.906L23.5474 38.4362C23.7081 38.615 23.9065 38.7579 24.1288 38.8551C24.3512 38.9523 24.5924 39.0015 24.836 38.9994C25.1551 38.9955 25.4666 38.9036 25.7346 38.7344L26.3789 38.3368C26.7492 38.1115 27.0164 37.7555 27.125 37.3427C27.5391 37.3213 27.9284 37.143 28.2101 36.8457L28.5323 36.5309C28.8248 36.2687 29.0139 35.9145 29.0666 35.53C29.1193 35.1455 29.0322 34.7551 28.8205 34.4269L29.1427 34.2944C29.437 34.1613 29.6861 33.9485 29.8604 33.6813C30.0347 33.4141 30.1269 33.1037 30.1261 32.7868V32.1075C30.1304 31.7917 30.0421 31.4813 29.8718 31.2129C30.2142 30.295 30.4308 29.3368 30.5161 28.3634C30.5671 27.9804 30.5328 27.5913 30.4158 27.2224C30.2987 26.8536 30.1016 26.5138 29.8379 26.2262C29.7198 26.0931 29.5893 25.9711 29.4479 25.8617ZM31.9065 13.7512C32.6355 15.06 32.7034 17.6445 29.5835 22.6477C30.0374 19.0372 29.7081 15.3737 28.6171 11.8957C29.2744 11.9375 29.913 12.1266 30.4834 12.4484C31.0538 12.7701 31.5408 13.2159 31.9065 13.7512ZM26.0568 9.67571V9.97391C26.0568 10.0568 29.5666 17.8101 27.1759 25.2653H23.4795L23.0387 24.7352C26.5485 19.4834 27.6167 15.5239 26.1924 12.956C25.6064 12.0936 24.8096 11.3875 23.8741 10.9016C22.9386 10.4156 21.8939 10.1651 20.8345 10.1727C20.7158 9.84138 20.6141 9.5763 20.5462 9.4272C20.387 6.94795 19.5879 4.54846 18.2233 2.45246C18.9131 1.92147 19.77 1.64046 20.648 1.65724C25.599 1.65724 26.0398 9.59287 26.0568 9.67571ZM21.4279 11.8957C22.0826 11.9387 22.7183 12.1285 23.2858 12.4503C23.8533 12.772 24.3373 13.2172 24.7003 13.7512C25.4294 15.06 25.4973 17.6445 22.3944 22.6477C22.8397 19.037 22.5105 15.3753 21.4279 11.8957ZM8.04998 9.67571C8.04998 9.67571 8.47387 1.65724 13.4588 1.65724C18.4437 1.65724 18.8507 9.59287 18.8507 9.67571L18.9355 9.97391C20.7024 14.2287 21.2589 18.8712 20.5462 23.4098C20.345 23.338 20.1331 23.2989 19.9189 23.2938H19.3424C19.0162 23.2945 18.6972 23.3871 18.4235 23.5604C18.1498 23.7338 17.9332 23.9806 17.7994 24.2713L17.3247 25.2653H7.67696C7.41288 25.2703 7.15063 25.3093 6.897 25.3813C4.43844 17.893 7.93129 10.0568 7.9652 9.94078L8.04998 9.67571ZM2.09858 13.7512C2.47743 13.2044 2.98077 12.7509 3.56913 12.4261C4.15749 12.1012 4.81486 11.914 5.48969 11.8791C4.36905 15.4371 4.0509 19.1901 4.55713 22.8797C1.28471 17.7107 1.36949 15.0766 2.09858 13.7512ZM27.2098 32.4389L28.3458 32.1075V32.7868L26.1246 33.7808L27.3115 35.3215L26.9893 35.6529L25.4294 34.4766L25.3107 34.5926L25.5312 35.7026L24.6325 35.1062L24.4799 35.2221L25.5312 36.8789L24.8869 37.293L23.5474 35.802C21.7739 36.7834 19.7697 37.2973 17.7316 37.293C15.8164 37.3096 13.9276 36.8555 12.2388 35.9726C10.55 35.0897 9.11546 33.8062 8.06694 32.2401L7.23611 33.1347L6.49007 32.7702L7.62609 31.5443L4.50627 31.2295L4.18411 30.6165L7.10047 30.4343L3.70935 29.2249V28.8107L6.77831 29.8213L3.04809 27.5185L6.52398 27.9492C6.54558 27.6665 6.67706 27.4026 6.89145 27.2116C7.10583 27.0206 7.38688 26.917 7.67696 26.922H18.4268L19.3424 24.9506H19.9189L19.2067 26.922H19.9358L20.0545 26.3588L20.5632 26.541C20.5632 26.541 20.5632 26.6238 20.6649 26.657H20.8684V26.8558H21.8349L21.6144 26.541C21.6144 26.541 21.7501 26.541 21.8009 26.3919L21.9875 26.0937L22.6148 26.8558H27.7015C27.8671 26.8584 28.0302 26.8959 28.1796 26.9656C28.3291 27.0353 28.4614 27.1357 28.5676 27.2599C28.6738 27.3841 28.7513 27.5292 28.795 27.6853C28.8386 27.8414 28.8474 28.0049 28.8205 28.1646C28.6294 29.692 28.078 31.1551 27.2098 32.4389Z" fill="#A4430A"/>
<path d="M11.8616 29.6576L9.74214 30.9001C9.6459 30.9555 9.57589 31.0457 9.54732 31.1511C9.51874 31.2566 9.53392 31.3688 9.58954 31.4634C9.62747 31.5277 9.68175 31.5812 9.7471 31.619C9.81245 31.6567 9.88667 31.6773 9.96256 31.6788C10.0353 31.6931 10.1102 31.6931 10.183 31.6788L12.3024 30.4363C12.3573 30.4093 12.4055 30.371 12.4437 30.324C12.4819 30.277 12.5092 30.2225 12.5237 30.1642C12.5382 30.1059 12.5396 30.0452 12.5277 29.9864C12.5159 29.9275 12.4911 29.8719 12.455 29.8233C12.398 29.7253 12.3039 29.653 12.1929 29.622C12.082 29.5911 11.963 29.6038 11.8616 29.6576Z" fill="#A4430A"/>
<path d="M14.7455 30.2353C14.6921 30.2201 14.6361 30.2153 14.5808 30.2212C14.5254 30.2271 14.4718 30.2436 14.423 30.2698C14.3742 30.2959 14.3312 30.3312 14.2963 30.3736C14.2615 30.416 14.2355 30.4647 14.2199 30.517L13.1348 34.3108C13.1167 34.363 13.1099 34.4182 13.1148 34.4731C13.1198 34.5279 13.1363 34.5812 13.1634 34.6295C13.1905 34.6778 13.2276 34.72 13.2723 34.7536C13.3169 34.7871 13.3683 34.8112 13.423 34.8244H13.5587C13.6504 34.8244 13.7396 34.7953 13.813 34.7416C13.8864 34.6878 13.9399 34.6122 13.9656 34.5262L15.0507 30.7323C15.0765 30.6269 15.059 30.5159 15.0019 30.423C14.9449 30.3301 14.8528 30.2627 14.7455 30.2353Z" fill="#A4430A"/>
</svg>
