<svg width="82" height="26" viewBox="0 0 82 26" fill="none" xmlns="http://www.w3.org/2000/svg">
<path d="M10.0034 0.289062L6.47339 8.78178C6.26504 9.27618 6.03065 9.666 5.77022 9.95123C5.51452 10.2365 5.24462 10.4528 4.96051 10.6001C4.67641 10.7475 4.3923 10.8473 4.10819 10.8996C3.82408 10.9472 3.52577 10.9709 3.21325 10.9709C2.88653 10.9709 2.50535 10.9638 2.06972 10.9495C1.63882 10.9353 1.34997 10.921 1.20319 10.9067V8.65343H1.36655C1.40916 8.66294 1.47546 8.67482 1.56542 8.68908C1.65539 8.70335 1.76903 8.71761 1.90635 8.73187C2.02 8.74138 2.14311 8.75088 2.27569 8.76039C2.40828 8.7699 2.52902 8.77465 2.63793 8.77465C2.95518 8.77465 3.2535 8.73662 3.53287 8.66056C3.81698 8.57975 4.00638 8.44426 4.10109 8.25411L0.1875 0.289062H3.05699L5.32275 5.26632L7.24048 0.289062H10.0034Z" fill="#5B5A5A"/>
<path d="M22.3769 6.9064C22.3769 8.22321 22.0218 9.26192 21.3115 10.0225C20.6012 10.7784 19.6045 11.1563 18.3213 11.1563C17.1422 11.1563 16.207 10.8331 15.5157 10.1865C14.8244 9.54002 14.4266 8.63442 14.3224 7.46973H12.7598V10.9067H10.2739V2.89892H12.7598V5.67991H14.4219C14.6113 4.72439 15.0422 3.98041 15.7146 3.44798C16.387 2.91555 17.2559 2.64934 18.3213 2.64934C19.6139 2.64934 20.6131 3.02965 21.3186 3.79026C22.0241 4.55087 22.3769 5.58959 22.3769 6.9064ZM19.3867 8.85309C19.5524 8.62015 19.666 8.34919 19.7276 8.04019C19.7939 7.72643 19.827 7.35326 19.827 6.92066C19.827 6.05546 19.6968 5.42558 19.4364 5.03101C19.1807 4.63644 18.7971 4.43916 18.2857 4.43916C18.0679 4.43916 17.8714 4.47481 17.6962 4.54612C17.521 4.61267 17.3577 4.7434 17.2061 4.93831C17.0641 5.12371 16.9504 5.37804 16.8652 5.7013C16.7847 6.02456 16.7445 6.43101 16.7445 6.92066C16.7445 7.73832 16.8699 8.35156 17.1209 8.76039C17.3766 9.16447 17.772 9.36651 18.3071 9.36651C18.5154 9.36651 18.7166 9.3261 18.9108 9.24528C19.1049 9.16447 19.2635 9.03374 19.3867 8.85309Z" fill="#5B5A5A"/>
<path d="M29.6648 4.63882H27.1931V10.9067H24.7072V4.63882H22.2354V2.89892H29.6648V4.63882Z" fill="#5B5A5A"/>
<path d="M37.6488 10.9067H35.1629V7.47686H32.5917V10.9067H30.1058V2.89892H32.5917V5.67278H35.1629V2.89892H37.6488V10.9067Z" fill="#5B5A5A"/>
<path d="M46.6272 6.9064C46.6272 8.22321 46.2673 9.26192 45.5476 10.0225C44.8326 10.7784 43.8193 11.1563 42.5076 11.1563C41.2055 11.1563 40.1922 10.7784 39.4677 10.0225C38.748 9.26192 38.3881 8.22321 38.3881 6.9064C38.3881 5.57532 38.748 4.53423 39.4677 3.78313C40.1922 3.02727 41.2055 2.64934 42.5076 2.64934C43.8145 2.64934 44.8279 3.02965 45.5476 3.79026C46.2673 4.54612 46.6272 5.58483 46.6272 6.9064ZM44.0773 6.92066C44.0773 6.44528 44.0371 6.05071 43.9566 5.73695C43.8808 5.41845 43.7743 5.16412 43.637 4.97396C43.4902 4.7743 43.3245 4.63644 43.1398 4.56038C42.9551 4.47957 42.7444 4.43916 42.5076 4.43916C42.2851 4.43916 42.0839 4.47481 41.9039 4.54612C41.724 4.61267 41.5583 4.7434 41.4067 4.93831C41.2647 5.12371 41.151 5.37804 41.0658 5.7013C40.9806 6.02456 40.938 6.43101 40.938 6.92066C40.938 7.4103 40.9782 7.80725 41.0587 8.11149C41.1392 8.41099 41.2434 8.65105 41.3712 8.8317C41.5038 9.0171 41.6695 9.15258 41.8684 9.23815C42.0673 9.32372 42.2875 9.36651 42.529 9.36651C42.7278 9.36651 42.9291 9.32372 43.1327 9.23815C43.341 9.15258 43.5068 9.02423 43.6299 8.85309C43.7767 8.64868 43.8879 8.40385 43.9637 8.11862C44.0395 7.82864 44.0773 7.42932 44.0773 6.92066Z" fill="#5B5A5A"/>
<path d="M51.4505 11.1207C49.9447 11.1207 48.7894 10.7594 47.9844 10.0368C47.1842 9.31421 46.784 8.28501 46.784 6.94918C46.784 5.64188 47.1581 4.59841 47.9063 3.81878C48.6544 3.03915 49.7009 2.64934 51.0457 2.64934C52.2673 2.64934 53.1859 2.97973 53.8015 3.64051C54.4171 4.3013 54.7249 5.24731 54.7249 6.47855V7.37703H49.2771C49.3008 7.74783 49.3789 8.0592 49.5115 8.31115C49.6441 8.55835 49.8193 8.75564 50.0371 8.90301C50.2502 9.05038 50.4988 9.15734 50.7829 9.22389C51.067 9.28569 51.3771 9.31659 51.7133 9.31659C52.0022 9.31659 52.2863 9.28569 52.5656 9.22389C52.845 9.15734 53.1007 9.07177 53.3327 8.96718C53.5363 8.87686 53.7234 8.77941 53.8938 8.67482C54.069 8.57024 54.2111 8.47754 54.32 8.39672H54.5828V10.4575C54.3792 10.5383 54.1922 10.6144 54.0217 10.6857C53.856 10.7522 53.6263 10.8212 53.3327 10.8925C53.0628 10.9638 52.7835 11.0185 52.4946 11.0565C52.2105 11.0993 51.8625 11.1207 51.4505 11.1207ZM52.2744 5.87244C52.2602 5.34476 52.1371 4.94306 51.9051 4.66734C51.6778 4.39162 51.3274 4.25376 50.8539 4.25376C50.3709 4.25376 49.9921 4.39875 49.7175 4.68873C49.4476 4.97872 49.2984 5.37329 49.27 5.87244H52.2744Z" fill="#5B5A5A"/>
<path d="M8.39822 14.484H3.92352V23.0766H1.26711V12.4589H8.39822V14.484Z" fill="#5B5A5A"/>
<path d="M16.3112 23.0766H13.8252V19.6467H11.2541V23.0766H8.76813V15.0687H11.2541V17.8426H13.8252V15.0687H16.3112V23.0766Z" fill="#5B5A5A"/>
<path d="M21.7169 23.2905C20.2111 23.2905 19.0558 22.9292 18.2508 22.2066C17.4506 21.484 17.0504 20.4548 17.0504 19.119C17.0504 17.8117 17.4245 16.7682 18.1727 15.9886C18.9208 15.209 19.9673 14.8192 21.3121 14.8192C22.5337 14.8192 23.4523 15.1495 24.0679 15.8103C24.6835 16.4711 24.9913 17.4171 24.9913 18.6484V19.5468H19.5435C19.5672 19.9176 19.6453 20.229 19.7779 20.481C19.9105 20.7282 20.0857 20.9254 20.3035 21.0728C20.5166 21.2202 20.7652 21.3271 21.0493 21.3937C21.3334 21.4555 21.6435 21.4864 21.9797 21.4864C22.2686 21.4864 22.5527 21.4555 22.832 21.3937C23.1114 21.3271 23.3671 21.2416 23.5991 21.137C23.8027 21.0467 23.9898 20.9492 24.1602 20.8446C24.3354 20.74 24.4775 20.6473 24.5864 20.5665H24.8492V22.6273C24.6456 22.7081 24.4586 22.7842 24.2881 22.8555C24.1224 22.9221 23.8927 22.991 23.5991 23.0623C23.3292 23.1336 23.0499 23.1883 22.761 23.2263C22.4769 23.2691 22.1289 23.2905 21.7169 23.2905ZM22.5408 18.0422C22.5266 17.5146 22.4035 17.1129 22.1715 16.8372C21.9442 16.5614 21.5938 16.4236 21.1203 16.4236C20.6373 16.4236 20.2585 16.5686 19.9839 16.8585C19.714 17.1485 19.5648 17.5431 19.5364 18.0422H22.5408ZM23.9543 13.9278H21.9158V11.9811H23.9543V13.9278ZM20.5379 13.9278H18.4994V11.9811H20.5379V13.9278Z" fill="#5B5A5A"/>
<path d="M31.9667 20.809C31.9667 21.2701 31.8601 21.6623 31.6471 21.9856C31.4387 22.3088 31.157 22.5679 30.8018 22.7628C30.4609 22.9482 30.0655 23.0837 29.6157 23.1693C29.1706 23.2548 28.6923 23.2976 28.1809 23.2976C27.5275 23.2976 26.938 23.2358 26.4124 23.1122C25.8868 22.9886 25.3967 22.8436 24.9421 22.6772V20.7519H25.2049C25.56 20.9611 25.9531 21.1394 26.384 21.2867C26.8196 21.4341 27.2623 21.5078 27.7122 21.5078C27.8779 21.5078 28.0791 21.4959 28.3159 21.4721C28.5526 21.4484 28.7373 21.408 28.8699 21.3509C29.0735 21.2701 29.2179 21.1726 29.3032 21.0586C29.3884 20.9397 29.431 20.79 29.431 20.6093C29.431 20.4097 29.3837 20.2528 29.289 20.1387C29.1943 20.0198 29.064 19.9319 28.8983 19.8749C28.7326 19.8178 28.5408 19.7845 28.323 19.775C28.1052 19.7608 27.8684 19.7536 27.6127 19.7536H26.6823V18.1563H27.3925C27.5725 18.1563 27.7903 18.154 28.046 18.1492C28.3017 18.1397 28.5053 18.1136 28.6568 18.0708C28.851 18.0185 29.0025 17.9448 29.1114 17.8497C29.2203 17.7499 29.2748 17.593 29.2748 17.3791C29.2748 17.227 29.2274 17.1034 29.1327 17.0083C29.0427 16.9085 28.922 16.83 28.7705 16.773C28.6426 16.7254 28.4935 16.6898 28.323 16.666C28.1525 16.6422 27.9726 16.6304 27.7832 16.6304C27.4375 16.6304 27.0682 16.6874 26.6752 16.8015C26.2822 16.9156 25.9246 17.0582 25.6027 17.2293H25.3399V15.3326C25.6098 15.247 26.0265 15.1448 26.5899 15.0259C27.1582 14.9023 27.7098 14.8405 28.2449 14.8405C28.7231 14.8405 29.1635 14.8762 29.566 14.9475C29.9685 15.0188 30.3473 15.1448 30.7024 15.3254C31.0339 15.4966 31.3014 15.7248 31.505 16.01C31.7086 16.2952 31.8104 16.6446 31.8104 17.0582C31.8104 17.4813 31.6755 17.8616 31.4056 18.1991C31.1357 18.5366 30.8066 18.7648 30.4183 18.8837V18.9479C30.9107 19.0857 31.2919 19.3163 31.5618 19.6395C31.8317 19.958 31.9667 20.3479 31.9667 20.809Z" fill="#5B5A5A"/>
<path d="M40.8811 25.0589H38.6722V23.048H34.0554V25.0589H31.8465V21.2796H32.4218C32.7817 20.5285 33.0682 19.611 33.2812 18.5271C33.4991 17.4433 33.608 16.2905 33.608 15.0687H40.0927V21.2796H40.8811V25.0589ZM37.621 21.2796V16.83H35.8666C35.7861 17.719 35.6488 18.5438 35.4547 19.3044C35.2653 20.0603 35.0356 20.7187 34.7657 21.2796H37.621Z" fill="#5B5A5A"/>
<path d="M48.6663 20.3883C48.6663 20.7971 48.5858 21.175 48.4248 21.5221C48.2638 21.8643 48.0531 22.1448 47.7926 22.3635C47.4706 22.6249 47.1368 22.8103 46.7911 22.9197C46.4502 23.0243 45.9885 23.0766 45.4061 23.0766H41.5707V15.0687H44.0495V17.7713H45.4132C45.9862 17.7713 46.4478 17.8117 46.7982 17.8925C47.1534 17.9733 47.4896 18.1326 47.8068 18.3703C48.0862 18.5794 48.2993 18.8623 48.4461 19.2188C48.5929 19.5754 48.6663 19.9652 48.6663 20.3883ZM45.9317 21.0799C46.0122 20.9754 46.0667 20.8684 46.0951 20.7591C46.1235 20.645 46.1377 20.5285 46.1377 20.4097C46.1377 20.0674 46.0359 19.8131 45.8323 19.6467C45.6287 19.4803 45.3351 19.3971 44.9515 19.3971H44.0495V21.4579H44.9515C45.2072 21.4579 45.4156 21.4222 45.5766 21.3509C45.7376 21.2749 45.856 21.1845 45.9317 21.0799ZM51.9619 23.0766H49.476V15.0687H51.9619V23.0766Z" fill="#5B5A5A"/>
<path d="M64.8184 23.0766H53.2907V15.0687H55.7695V21.3438H57.8151V15.0687H60.2939V21.3438H62.3395V15.0687H64.8184V23.0766Z" fill="#5B5A5A"/>
<path d="M74.024 23.0766H71.1616L69.2723 19.9034H68.6331V23.0766H66.1471V15.0687H68.6331V18.2847C68.9835 18.2799 69.2439 18.23 69.4144 18.1349C69.5896 18.0351 69.779 17.776 69.9826 17.3577C70.0489 17.2151 70.1199 17.0582 70.1957 16.8871C70.2714 16.7159 70.3401 16.5638 70.4017 16.4307C70.6526 15.903 70.9604 15.5417 71.325 15.3468C71.6943 15.1519 72.1418 15.0545 72.6674 15.0545C72.8521 15.0545 73.0273 15.0568 73.193 15.0616C73.3587 15.0664 73.4771 15.0687 73.5481 15.0687V17.208H73.0652C72.9136 17.208 72.7763 17.2389 72.6532 17.3007C72.5348 17.3577 72.4307 17.4314 72.3407 17.5217C72.2507 17.6168 72.1821 17.7119 72.1347 17.8069C72.0921 17.902 72.0495 17.9947 72.0069 18.085C71.898 18.3417 71.8175 18.5248 71.7654 18.6341C71.7133 18.7434 71.6209 18.8504 71.4884 18.955L74.024 23.0766Z" fill="#5B5A5A"/>
<path d="M82.0009 19.0762C82.0009 20.393 81.6411 21.4317 80.9213 22.1923C80.2063 22.9482 79.193 23.3261 77.8814 23.3261C76.5792 23.3261 75.5659 22.9482 74.8414 22.1923C74.1217 21.4317 73.7618 20.393 73.7618 19.0762C73.7618 17.7451 74.1217 16.704 74.8414 15.9529C75.5659 15.1971 76.5792 14.8192 77.8814 14.8192C79.1883 14.8192 80.2016 15.1995 80.9213 15.9601C81.6411 16.7159 82.0009 17.7546 82.0009 19.0762ZM79.4511 19.0905C79.4511 18.6151 79.4108 18.2205 79.3303 17.9068C79.2545 17.5883 79.148 17.3339 79.0107 17.1438C78.8639 16.9441 78.6982 16.8063 78.5135 16.7302C78.3288 16.6494 78.1181 16.609 77.8814 16.609C77.6588 16.609 77.4576 16.6446 77.2776 16.7159C77.0977 16.7825 76.932 16.9132 76.7804 17.1081C76.6384 17.2935 76.5247 17.5479 76.4395 17.8711C76.3543 18.1944 76.3117 18.6008 76.3117 19.0905C76.3117 19.5801 76.3519 19.9771 76.4324 20.2813C76.5129 20.5808 76.6171 20.8209 76.7449 21.0015C76.8775 21.1869 77.0432 21.3224 77.2421 21.408C77.441 21.4935 77.6612 21.5363 77.9027 21.5363C78.1015 21.5363 78.3028 21.4935 78.5064 21.408C78.7147 21.3224 78.8805 21.194 79.0036 21.0229C79.1504 20.8185 79.2617 20.5737 79.3374 20.2884C79.4132 19.9985 79.4511 19.5991 79.4511 19.0905Z" fill="#5B5A5A"/>
</svg>
